<?xml version="1.0" encoding="UTF-8" standalone="no"?>
<!DOCTYPE svg PUBLIC "-//W3C//DTD SVG 1.1//EN"
 "http://www.w3.org/Graphics/SVG/1.1/DTD/svg11.dtd">
<!-- Generated by graphviz version 2.42.3 ()
 -->
<!-- Title: %3 Pages: 1 -->
<svg width="6869pt" height="404pt"
 viewBox="0.00 0.00 6869.18 404.00" xmlns="http://www.w3.org/2000/svg" xmlns:xlink="http://www.w3.org/1999/xlink">
<g id="graph0" class="graph" transform="scale(1 1) rotate(0) translate(4 400)">
<title>%3</title>
<polygon fill="white" stroke="transparent" points="-4,4 -4,-400 6865.18,-400 6865.18,4 -4,4"/>
<!-- [root] aws_dynamodb_table.dynamo_state_lock (prepare state) -->
<g id="node1" class="node">
<title>[root] aws_dynamodb_table.dynamo_state_lock (prepare state)</title>
<polygon fill="none" stroke="black" points="3190.5,-252 2903.5,-252 2903.5,-216 3190.5,-216 3190.5,-252"/>
<text text-anchor="middle" x="3047" y="-230.3" font-family="Times,serif" font-size="14.00">aws_dynamodb_table.dynamo_state_lock</text>
</g>
<!-- [root] provider.aws -->
<g id="node26" class="node">
<title>[root] provider.aws</title>
<polygon fill="none" stroke="black" points="1901,-36 1802.8,-18 1901,0 1999.2,-18 1901,-36"/>
<text text-anchor="middle" x="1901" y="-14.3" font-family="Times,serif" font-size="14.00">provider.aws</text>
</g>
<!-- [root] aws_dynamodb_table.dynamo_state_lock (prepare state)&#45;&gt;[root] provider.aws -->
<g id="edge1" class="edge">
<title>[root] aws_dynamodb_table.dynamo_state_lock (prepare state)&#45;&gt;[root] provider.aws</title>
<path fill="none" stroke="black" d="M2958.12,-215.95C2803.21,-186.29 2473.67,-123.45 2195,-72 2112.68,-56.8 2017.29,-39.7 1958.03,-29.14"/>
<polygon fill="black" stroke="black" points="1958.58,-25.68 1948.12,-27.37 1957.35,-32.57 1958.58,-25.68"/>
</g>
<!-- [root] module.teste.aws_instance.web (prepare state) -->
<g id="node2" class="node">
<title>[root] module.teste.aws_instance.web (prepare state)</title>
<polygon fill="none" stroke="black" points="3756,-108 3522,-108 3522,-72 3756,-72 3756,-108"/>
<text text-anchor="middle" x="3639" y="-86.3" font-family="Times,serif" font-size="14.00">module.teste.aws_instance.web</text>
</g>
<!-- [root] module.teste.var.servers -->
<g id="node20" class="node">
<title>[root] module.teste.var.servers</title>
<polygon fill="none" stroke="black" points="3731.5,-36 3540.5,-36 3540.5,0 3737.5,0 3737.5,-30 3731.5,-36"/>
<polyline fill="none" stroke="black" points="3731.5,-36 3731.5,-30 "/>
<polyline fill="none" stroke="black" points="3737.5,-30 3731.5,-30 "/>
<text text-anchor="middle" x="3639" y="-14.3" font-family="Times,serif" font-size="14.00">module.teste.var.servers</text>
</g>
<!-- [root] module.teste.aws_instance.web (prepare state)&#45;&gt;[root] module.teste.var.servers -->
<g id="edge26" class="edge">
<title>[root] module.teste.aws_instance.web (prepare state)&#45;&gt;[root] module.teste.var.servers</title>
<path fill="none" stroke="black" d="M3639,-71.7C3639,-63.98 3639,-54.71 3639,-46.11"/>
<polygon fill="black" stroke="black" points="3642.5,-46.1 3639,-36.1 3635.5,-46.1 3642.5,-46.1"/>
</g>
<!-- [root] module.teste.aws_instance.web (prepare state)&#45;&gt;[root] provider.aws -->
<g id="edge27" class="edge">
<title>[root] module.teste.aws_instance.web (prepare state)&#45;&gt;[root] provider.aws</title>
<path fill="none" stroke="black" d="M3521.93,-84.28C3194.58,-71.1 2275.02,-34.06 1987.83,-22.5"/>
<polygon fill="black" stroke="black" points="1987.6,-18.99 1977.47,-22.08 1987.32,-25.98 1987.6,-18.99"/>
</g>
<!-- [root] provisioner.remote&#45;exec -->
<g id="node36" class="node">
<title>[root] provisioner.remote&#45;exec</title>
<ellipse fill="none" stroke="black" cx="4170" cy="-18" rx="157.07" ry="18"/>
<text text-anchor="middle" x="4170" y="-14.3" font-family="Times,serif" font-size="14.00">[root] provisioner.remote&#45;exec</text>
</g>
<!-- [root] module.teste.aws_instance.web (prepare state)&#45;&gt;[root] provisioner.remote&#45;exec -->
<g id="edge28" class="edge">
<title>[root] module.teste.aws_instance.web (prepare state)&#45;&gt;[root] provisioner.remote&#45;exec</title>
<path fill="none" stroke="black" d="M3756.19,-73.55C3847.06,-61.57 3972.06,-45.09 4060.84,-33.39"/>
<polygon fill="black" stroke="black" points="4061.48,-36.84 4070.94,-32.06 4060.56,-29.9 4061.48,-36.84"/>
</g>
<!-- [root] module.teste.aws_instance.west_web (prepare state) -->
<g id="node3" class="node">
<title>[root] module.teste.aws_instance.west_web (prepare state)</title>
<polygon fill="none" stroke="black" points="5214,-108 4942,-108 4942,-72 5214,-72 5214,-108"/>
<text text-anchor="middle" x="5078" y="-86.3" font-family="Times,serif" font-size="14.00">module.teste.aws_instance.west_web</text>
</g>
<!-- [root] module.teste.var.servers_west -->
<g id="node21" class="node">
<title>[root] module.teste.var.servers_west</title>
<polygon fill="none" stroke="black" points="5045,-36 4817,-36 4817,0 5051,0 5051,-30 5045,-36"/>
<polyline fill="none" stroke="black" points="5045,-36 5045,-30 "/>
<polyline fill="none" stroke="black" points="5051,-30 5045,-30 "/>
<text text-anchor="middle" x="4934" y="-14.3" font-family="Times,serif" font-size="14.00">module.teste.var.servers_west</text>
</g>
<!-- [root] module.teste.aws_instance.west_web (prepare state)&#45;&gt;[root] module.teste.var.servers_west -->
<g id="edge29" class="edge">
<title>[root] module.teste.aws_instance.west_web (prepare state)&#45;&gt;[root] module.teste.var.servers_west</title>
<path fill="none" stroke="black" d="M5042.77,-71.88C5023.42,-62.47 4999.23,-50.71 4978.57,-40.67"/>
<polygon fill="black" stroke="black" points="4979.89,-37.41 4969.36,-36.19 4976.83,-43.71 4979.89,-37.41"/>
</g>
<!-- [root] provider.aws.oregon -->
<g id="node27" class="node">
<title>[root] provider.aws.oregon</title>
<polygon fill="none" stroke="black" points="5926,-36 5779.71,-18 5926,0 6072.29,-18 5926,-36"/>
<text text-anchor="middle" x="5926" y="-14.3" font-family="Times,serif" font-size="14.00">provider.aws.oregon</text>
</g>
<!-- [root] module.teste.aws_instance.west_web (prepare state)&#45;&gt;[root] provider.aws.oregon -->
<g id="edge30" class="edge">
<title>[root] module.teste.aws_instance.west_web (prepare state)&#45;&gt;[root] provider.aws.oregon</title>
<path fill="none" stroke="black" d="M5214.25,-77.75C5387.82,-63.43 5683.2,-39.04 5832.99,-26.68"/>
<polygon fill="black" stroke="black" points="5833.4,-30.16 5843.08,-25.84 5832.82,-23.18 5833.4,-30.16"/>
</g>
<!-- [root] module.teste.aws_instance.west_web (prepare state)&#45;&gt;[root] provisioner.remote&#45;exec -->
<g id="edge32" class="edge">
<title>[root] module.teste.aws_instance.west_web (prepare state)&#45;&gt;[root] provisioner.remote&#45;exec</title>
<path fill="none" stroke="black" d="M4941.57,-78.48C4770.22,-65.27 4477.96,-42.74 4306.55,-29.53"/>
<polygon fill="black" stroke="black" points="4306.69,-26.03 4296.45,-28.75 4306.15,-33.01 4306.69,-26.03"/>
</g>
<!-- [root] provisioner.local&#45;exec -->
<g id="node37" class="node">
<title>[root] provisioner.local&#45;exec</title>
<ellipse fill="none" stroke="black" cx="5221" cy="-18" rx="152.17" ry="18"/>
<text text-anchor="middle" x="5221" y="-14.3" font-family="Times,serif" font-size="14.00">[root] provisioner.local&#45;exec</text>
</g>
<!-- [root] module.teste.aws_instance.west_web (prepare state)&#45;&gt;[root] provisioner.local&#45;exec -->
<g id="edge31" class="edge">
<title>[root] module.teste.aws_instance.west_web (prepare state)&#45;&gt;[root] provisioner.local&#45;exec</title>
<path fill="none" stroke="black" d="M5112.98,-71.88C5132.49,-62.33 5156.94,-50.36 5177.65,-40.22"/>
<polygon fill="black" stroke="black" points="5179.43,-43.25 5186.87,-35.71 5176.35,-36.96 5179.43,-43.25"/>
</g>
<!-- [root] module.teste.aws_internet_gateway.web_apps (prepare state) -->
<g id="node4" class="node">
<title>[root] module.teste.aws_internet_gateway.web_apps (prepare state)</title>
<polygon fill="none" stroke="black" points="332,-252 0,-252 0,-216 332,-216 332,-252"/>
<text text-anchor="middle" x="166" y="-230.3" font-family="Times,serif" font-size="14.00">module.teste.aws_internet_gateway.web_apps</text>
</g>
<!-- [root] module.teste.aws_internet_gateway.web_apps (prepare state)&#45;&gt;[root] provider.aws -->
<g id="edge33" class="edge">
<title>[root] module.teste.aws_internet_gateway.web_apps (prepare state)&#45;&gt;[root] provider.aws</title>
<path fill="none" stroke="black" d="M266.59,-215.96C458.74,-183.91 891.51,-114.08 1258,-72 1460.2,-48.79 1699.3,-31.82 1821.05,-23.94"/>
<polygon fill="black" stroke="black" points="1821.64,-27.4 1831.4,-23.27 1821.19,-20.42 1821.64,-27.4"/>
</g>
<!-- [root] module.teste.aws_key_pair.terraform_resource_kp (prepare state) -->
<g id="node5" class="node">
<title>[root] module.teste.aws_key_pair.terraform_resource_kp (prepare state)</title>
<polygon fill="none" stroke="black" points="719.5,-252 350.5,-252 350.5,-216 719.5,-216 719.5,-252"/>
<text text-anchor="middle" x="535" y="-230.3" font-family="Times,serif" font-size="14.00">module.teste.aws_key_pair.terraform_resource_kp</text>
</g>
<!-- [root] module.teste.aws_key_pair.terraform_resource_kp (prepare state)&#45;&gt;[root] provider.aws -->
<g id="edge34" class="edge">
<title>[root] module.teste.aws_key_pair.terraform_resource_kp (prepare state)&#45;&gt;[root] provider.aws</title>
<path fill="none" stroke="black" d="M627.84,-215.96C797.64,-185.09 1169.78,-118.77 1485,-72 1607.71,-53.79 1751.37,-36.34 1833.72,-26.71"/>
<polygon fill="black" stroke="black" points="1834.17,-30.18 1843.7,-25.54 1833.36,-23.23 1834.17,-30.18"/>
</g>
<!-- [root] module.teste.aws_key_pair.terraform_resource_kp_west (prepare state) -->
<g id="node6" class="node">
<title>[root] module.teste.aws_key_pair.terraform_resource_kp_west (prepare state)</title>
<polygon fill="none" stroke="black" points="5681.5,-252 5274.5,-252 5274.5,-216 5681.5,-216 5681.5,-252"/>
<text text-anchor="middle" x="5478" y="-230.3" font-family="Times,serif" font-size="14.00">module.teste.aws_key_pair.terraform_resource_kp_west</text>
</g>
<!-- [root] module.teste.aws_key_pair.terraform_resource_kp_west (prepare state)&#45;&gt;[root] provider.aws.oregon -->
<g id="edge35" class="edge">
<title>[root] module.teste.aws_key_pair.terraform_resource_kp_west (prepare state)&#45;&gt;[root] provider.aws.oregon</title>
<path fill="none" stroke="black" d="M5513.9,-215.85C5597.27,-176.02 5803.33,-77.6 5888.37,-36.98"/>
<polygon fill="black" stroke="black" points="5890.13,-40.01 5897.65,-32.54 5887.11,-33.7 5890.13,-40.01"/>
</g>
<!-- [root] module.teste.aws_route_table.route_web_apps (prepare state) -->
<g id="node7" class="node">
<title>[root] module.teste.aws_route_table.route_web_apps (prepare state)</title>
<polygon fill="none" stroke="black" points="1076.5,-252 737.5,-252 737.5,-216 1076.5,-216 1076.5,-252"/>
<text text-anchor="middle" x="907" y="-230.3" font-family="Times,serif" font-size="14.00">module.teste.aws_route_table.route_web_apps</text>
</g>
<!-- [root] module.teste.aws_route_table.route_web_apps (prepare state)&#45;&gt;[root] provider.aws -->
<g id="edge36" class="edge">
<title>[root] module.teste.aws_route_table.route_web_apps (prepare state)&#45;&gt;[root] provider.aws</title>
<path fill="none" stroke="black" d="M986.25,-215.94C1181.99,-173.8 1684.36,-65.64 1848.35,-30.33"/>
<polygon fill="black" stroke="black" points="1849.17,-33.74 1858.2,-28.21 1847.69,-26.9 1849.17,-33.74"/>
</g>
<!-- [root] module.teste.aws_route_table_association.web_app_teste_route_web_apps (prepare state) -->
<g id="node8" class="node">
<title>[root] module.teste.aws_route_table_association.web_app_teste_route_web_apps (prepare state)</title>
<polygon fill="none" stroke="black" points="1629,-252 1095,-252 1095,-216 1629,-216 1629,-252"/>
<text text-anchor="middle" x="1362" y="-230.3" font-family="Times,serif" font-size="14.00">module.teste.aws_route_table_association.web_app_teste_route_web_apps</text>
</g>
<!-- [root] module.teste.aws_route_table_association.web_app_teste_route_web_apps (prepare state)&#45;&gt;[root] provider.aws -->
<g id="edge37" class="edge">
<title>[root] module.teste.aws_route_table_association.web_app_teste_route_web_apps (prepare state)&#45;&gt;[root] provider.aws</title>
<path fill="none" stroke="black" d="M1405.2,-215.85C1507.6,-175.19 1763.84,-73.46 1861.95,-34.51"/>
<polygon fill="black" stroke="black" points="1863.48,-37.66 1871.48,-30.72 1860.9,-31.16 1863.48,-37.66"/>
</g>
<!-- [root] module.teste.aws_security_group.allow_remote_communication (prepare state) -->
<g id="node9" class="node">
<title>[root] module.teste.aws_security_group.allow_remote_communication (prepare state)</title>
<polygon fill="none" stroke="black" points="6152,-252 5700,-252 5700,-216 6152,-216 6152,-252"/>
<text text-anchor="middle" x="5926" y="-230.3" font-family="Times,serif" font-size="14.00">module.teste.aws_security_group.allow_remote_communication</text>
</g>
<!-- [root] module.teste.aws_security_group.allow_remote_communication (prepare state)&#45;&gt;[root] provider.aws.oregon -->
<g id="edge38" class="edge">
<title>[root] module.teste.aws_security_group.allow_remote_communication (prepare state)&#45;&gt;[root] provider.aws.oregon</title>
<path fill="none" stroke="black" d="M5926,-215.85C5926,-178.83 5926,-91.18 5926,-46.39"/>
<polygon fill="black" stroke="black" points="5929.5,-46.23 5926,-36.23 5922.5,-46.23 5929.5,-46.23"/>
</g>
<!-- [root] module.teste.aws_security_group.allow_ssh (prepare state) -->
<g id="node10" class="node">
<title>[root] module.teste.aws_security_group.allow_ssh (prepare state)</title>
<polygon fill="none" stroke="black" points="1971,-252 1647,-252 1647,-216 1971,-216 1971,-252"/>
<text text-anchor="middle" x="1809" y="-230.3" font-family="Times,serif" font-size="14.00">module.teste.aws_security_group.allow_ssh</text>
</g>
<!-- [root] module.teste.aws_security_group.allow_ssh (prepare state)&#45;&gt;[root] provider.aws -->
<g id="edge39" class="edge">
<title>[root] module.teste.aws_security_group.allow_ssh (prepare state)&#45;&gt;[root] provider.aws</title>
<path fill="none" stroke="black" d="M1816.37,-215.85C1832.55,-178.22 1871.23,-88.25 1890.17,-44.18"/>
<polygon fill="black" stroke="black" points="1893.49,-45.34 1894.22,-34.77 1887.06,-42.57 1893.49,-45.34"/>
</g>
<!-- [root] module.teste.aws_security_group.allow_ssh_west (prepare state) -->
<g id="node11" class="node">
<title>[root] module.teste.aws_security_group.allow_ssh_west (prepare state)</title>
<polygon fill="none" stroke="black" points="6532,-252 6170,-252 6170,-216 6532,-216 6532,-252"/>
<text text-anchor="middle" x="6351" y="-230.3" font-family="Times,serif" font-size="14.00">module.teste.aws_security_group.allow_ssh_west</text>
</g>
<!-- [root] module.teste.aws_security_group.allow_ssh_west (prepare state)&#45;&gt;[root] provider.aws.oregon -->
<g id="edge40" class="edge">
<title>[root] module.teste.aws_security_group.allow_ssh_west (prepare state)&#45;&gt;[root] provider.aws.oregon</title>
<path fill="none" stroke="black" d="M6316.94,-215.85C6238.1,-176.15 6043.63,-78.23 5962.49,-37.37"/>
<polygon fill="black" stroke="black" points="5963.67,-34.05 5953.17,-32.68 5960.52,-40.3 5963.67,-34.05"/>
</g>
<!-- [root] module.teste.aws_subnet.web_app_teste (prepare state) -->
<g id="node12" class="node">
<title>[root] module.teste.aws_subnet.web_app_teste (prepare state)</title>
<polygon fill="none" stroke="black" points="2283,-252 1989,-252 1989,-216 2283,-216 2283,-252"/>
<text text-anchor="middle" x="2136" y="-230.3" font-family="Times,serif" font-size="14.00">module.teste.aws_subnet.web_app_teste</text>
</g>
<!-- [root] module.teste.aws_subnet.web_app_teste (prepare state)&#45;&gt;[root] provider.aws -->
<g id="edge41" class="edge">
<title>[root] module.teste.aws_subnet.web_app_teste (prepare state)&#45;&gt;[root] provider.aws</title>
<path fill="none" stroke="black" d="M2117.17,-215.85C2074.54,-177.03 1970.78,-82.54 1924.25,-40.17"/>
<polygon fill="black" stroke="black" points="1926.52,-37.51 1916.77,-33.36 1921.81,-42.68 1926.52,-37.51"/>
</g>
<!-- [root] module.teste.aws_vpc.web_apps (prepare state) -->
<g id="node13" class="node">
<title>[root] module.teste.aws_vpc.web_apps (prepare state)</title>
<polygon fill="none" stroke="black" points="2535,-252 2301,-252 2301,-216 2535,-216 2535,-252"/>
<text text-anchor="middle" x="2418" y="-230.3" font-family="Times,serif" font-size="14.00">module.teste.aws_vpc.web_apps</text>
</g>
<!-- [root] module.teste.aws_vpc.web_apps (prepare state)&#45;&gt;[root] provider.aws -->
<g id="edge42" class="edge">
<title>[root] module.teste.aws_vpc.web_apps (prepare state)&#45;&gt;[root] provider.aws</title>
<path fill="none" stroke="black" d="M2376.57,-215.85C2278.56,-175.28 2033.63,-73.9 1939.08,-34.76"/>
<polygon fill="black" stroke="black" points="1940.2,-31.44 1929.62,-30.85 1937.52,-37.9 1940.2,-31.44"/>
</g>
<!-- [root] module.teste.data.aws_ami.gomex_image (prepare state) -->
<g id="node14" class="node">
<title>[root] module.teste.data.aws_ami.gomex_image (prepare state)</title>
<polygon fill="none" stroke="black" points="2885,-252 2591,-252 2591,-216 2885,-216 2885,-252"/>
<text text-anchor="middle" x="2738" y="-230.3" font-family="Times,serif" font-size="14.00">module.teste.data.aws_ami.gomex_image</text>
</g>
<!-- [root] module.teste.data.aws_ami.gomex_image (prepare state)&#45;&gt;[root] provider.aws -->
<g id="edge43" class="edge">
<title>[root] module.teste.data.aws_ami.gomex_image (prepare state)&#45;&gt;[root] provider.aws</title>
<path fill="none" stroke="black" d="M2671.27,-215.94C2508.07,-174.21 2091.75,-67.77 1949.5,-31.4"/>
<polygon fill="black" stroke="black" points="1950.3,-27.99 1939.74,-28.91 1948.56,-34.77 1950.3,-27.99"/>
</g>
<!-- [root] module.teste.data.aws_ami.west_ubuntu (prepare state) -->
<g id="node15" class="node">
<title>[root] module.teste.data.aws_ami.west_ubuntu (prepare state)</title>
<polygon fill="none" stroke="black" points="6844,-252 6550,-252 6550,-216 6844,-216 6844,-252"/>
<text text-anchor="middle" x="6697" y="-230.3" font-family="Times,serif" font-size="14.00">module.teste.data.aws_ami.west_ubuntu</text>
</g>
<!-- [root] module.teste.data.aws_ami.west_ubuntu (prepare state)&#45;&gt;[root] provider.aws.oregon -->
<g id="edge44" class="edge">
<title>[root] module.teste.data.aws_ami.west_ubuntu (prepare state)&#45;&gt;[root] provider.aws.oregon</title>
<path fill="none" stroke="black" d="M6635.53,-215.94C6488.14,-175.03 6116.59,-71.9 5978.64,-33.61"/>
<polygon fill="black" stroke="black" points="5979.3,-30.16 5968.73,-30.86 5977.43,-36.91 5979.3,-30.16"/>
</g>
<!-- [root] module.teste.output.ip_address -->
<g id="node16" class="node">
<title>[root] module.teste.output.ip_address</title>
<polygon fill="none" stroke="black" points="3510,-180 3274,-180 3274,-144 3516,-144 3516,-174 3510,-180"/>
<polyline fill="none" stroke="black" points="3510,-180 3510,-174 "/>
<polyline fill="none" stroke="black" points="3516,-174 3510,-174 "/>
<text text-anchor="middle" x="3395" y="-158.3" font-family="Times,serif" font-size="14.00">module.teste.output.ip_address</text>
</g>
<!-- [root] module.teste.output.ip_address&#45;&gt;[root] module.teste.aws_instance.web (prepare state) -->
<g id="edge45" class="edge">
<title>[root] module.teste.output.ip_address&#45;&gt;[root] module.teste.aws_instance.web (prepare state)</title>
<path fill="none" stroke="black" d="M3454.38,-143.97C3489.06,-134.01 3533.01,-121.41 3569.33,-110.99"/>
<polygon fill="black" stroke="black" points="3570.71,-114.23 3579.36,-108.11 3568.78,-107.5 3570.71,-114.23"/>
</g>
<!-- [root] module.teste.output.ip_address_west -->
<g id="node17" class="node">
<title>[root] module.teste.output.ip_address_west</title>
<polygon fill="none" stroke="black" points="5211.5,-180 4938.5,-180 4938.5,-144 5217.5,-144 5217.5,-174 5211.5,-180"/>
<polyline fill="none" stroke="black" points="5211.5,-180 5211.5,-174 "/>
<polyline fill="none" stroke="black" points="5217.5,-174 5211.5,-174 "/>
<text text-anchor="middle" x="5078" y="-158.3" font-family="Times,serif" font-size="14.00">module.teste.output.ip_address_west</text>
</g>
<!-- [root] module.teste.output.ip_address_west&#45;&gt;[root] module.teste.aws_instance.west_web (prepare state) -->
<g id="edge46" class="edge">
<title>[root] module.teste.output.ip_address_west&#45;&gt;[root] module.teste.aws_instance.west_web (prepare state)</title>
<path fill="none" stroke="black" d="M5078,-143.7C5078,-135.98 5078,-126.71 5078,-118.11"/>
<polygon fill="black" stroke="black" points="5081.5,-118.1 5078,-108.1 5074.5,-118.1 5081.5,-118.1"/>
</g>
<!-- [root] module.teste.output.public_dns -->
<g id="node18" class="node">
<title>[root] module.teste.output.public_dns</title>
<polygon fill="none" stroke="black" points="3885,-180 3649,-180 3649,-144 3891,-144 3891,-174 3885,-180"/>
<polyline fill="none" stroke="black" points="3885,-180 3885,-174 "/>
<polyline fill="none" stroke="black" points="3891,-174 3885,-174 "/>
<text text-anchor="middle" x="3770" y="-158.3" font-family="Times,serif" font-size="14.00">module.teste.output.public_dns</text>
</g>
<!-- [root] module.teste.output.public_dns&#45;&gt;[root] module.teste.aws_instance.web (prepare state) -->
<g id="edge47" class="edge">
<title>[root] module.teste.output.public_dns&#45;&gt;[root] module.teste.aws_instance.web (prepare state)</title>
<path fill="none" stroke="black" d="M3737.95,-143.88C3720.51,-134.55 3698.73,-122.92 3680.06,-112.94"/>
<polygon fill="black" stroke="black" points="3681.64,-109.82 3671.17,-108.19 3678.34,-115.99 3681.64,-109.82"/>
</g>
<!-- [root] module.teste.output.public_dns_west -->
<g id="node19" class="node">
<title>[root] module.teste.output.public_dns_west</title>
<polygon fill="none" stroke="black" points="4503.5,-180 4230.5,-180 4230.5,-144 4509.5,-144 4509.5,-174 4503.5,-180"/>
<polyline fill="none" stroke="black" points="4503.5,-180 4503.5,-174 "/>
<polyline fill="none" stroke="black" points="4509.5,-174 4503.5,-174 "/>
<text text-anchor="middle" x="4370" y="-158.3" font-family="Times,serif" font-size="14.00">module.teste.output.public_dns_west</text>
</g>
<!-- [root] module.teste.output.public_dns_west&#45;&gt;[root] module.teste.aws_instance.west_web (prepare state) -->
<g id="edge48" class="edge">
<title>[root] module.teste.output.public_dns_west&#45;&gt;[root] module.teste.aws_instance.west_web (prepare state)</title>
<path fill="none" stroke="black" d="M4509.58,-144.99C4512.75,-144.66 4515.89,-144.32 4519,-144 4659,-129.38 4818.9,-114.39 4931.72,-104.1"/>
<polygon fill="black" stroke="black" points="4932.17,-107.57 4941.81,-103.18 4931.53,-100.6 4932.17,-107.57"/>
</g>
<!-- [root] output.ip_address -->
<g id="node22" class="node">
<title>[root] output.ip_address</title>
<polygon fill="none" stroke="black" points="3347,-252 3209,-252 3209,-216 3353,-216 3353,-246 3347,-252"/>
<polyline fill="none" stroke="black" points="3347,-252 3347,-246 "/>
<polyline fill="none" stroke="black" points="3353,-246 3347,-246 "/>
<text text-anchor="middle" x="3281" y="-230.3" font-family="Times,serif" font-size="14.00">output.ip_address</text>
</g>
<!-- [root] output.ip_address&#45;&gt;[root] module.teste.output.ip_address -->
<g id="edge49" class="edge">
<title>[root] output.ip_address&#45;&gt;[root] module.teste.output.ip_address</title>
<path fill="none" stroke="black" d="M3308.89,-215.88C3323.79,-206.72 3342.33,-195.34 3358.38,-185.48"/>
<polygon fill="black" stroke="black" points="3360.31,-188.41 3367.01,-180.19 3356.65,-182.44 3360.31,-188.41"/>
</g>
<!-- [root] output.ip_address_west -->
<g id="node23" class="node">
<title>[root] output.ip_address_west</title>
<polygon fill="none" stroke="black" points="5174,-252 4998,-252 4998,-216 5180,-216 5180,-246 5174,-252"/>
<polyline fill="none" stroke="black" points="5174,-252 5174,-246 "/>
<polyline fill="none" stroke="black" points="5180,-246 5174,-246 "/>
<text text-anchor="middle" x="5089" y="-230.3" font-family="Times,serif" font-size="14.00">output.ip_address_west</text>
</g>
<!-- [root] output.ip_address_west&#45;&gt;[root] module.teste.output.ip_address_west -->
<g id="edge50" class="edge">
<title>[root] output.ip_address_west&#45;&gt;[root] module.teste.output.ip_address_west</title>
<path fill="none" stroke="black" d="M5086.28,-215.7C5085.07,-207.98 5083.61,-198.71 5082.26,-190.11"/>
<polygon fill="black" stroke="black" points="5085.7,-189.44 5080.69,-180.1 5078.78,-190.53 5085.7,-189.44"/>
</g>
<!-- [root] output.public_dns -->
<g id="node24" class="node">
<title>[root] output.public_dns</title>
<polygon fill="none" stroke="black" points="4064,-252 3926,-252 3926,-216 4070,-216 4070,-246 4064,-252"/>
<polyline fill="none" stroke="black" points="4064,-252 4064,-246 "/>
<polyline fill="none" stroke="black" points="4070,-246 4064,-246 "/>
<text text-anchor="middle" x="3998" y="-230.3" font-family="Times,serif" font-size="14.00">output.public_dns</text>
</g>
<!-- [root] output.public_dns&#45;&gt;[root] module.teste.output.public_dns -->
<g id="edge51" class="edge">
<title>[root] output.public_dns&#45;&gt;[root] module.teste.output.public_dns</title>
<path fill="none" stroke="black" d="M3942.52,-215.97C3910.24,-206.06 3869.39,-193.51 3835.54,-183.12"/>
<polygon fill="black" stroke="black" points="3836.32,-179.7 3825.73,-180.11 3834.26,-186.39 3836.32,-179.7"/>
</g>
<!-- [root] output.public_dns_west -->
<g id="node25" class="node">
<title>[root] output.public_dns_west</title>
<polygon fill="none" stroke="black" points="4974,-252 4798,-252 4798,-216 4980,-216 4980,-246 4974,-252"/>
<polyline fill="none" stroke="black" points="4974,-252 4974,-246 "/>
<polyline fill="none" stroke="black" points="4980,-246 4974,-246 "/>
<text text-anchor="middle" x="4889" y="-230.3" font-family="Times,serif" font-size="14.00">output.public_dns_west</text>
</g>
<!-- [root] output.public_dns_west&#45;&gt;[root] module.teste.output.public_dns_west -->
<g id="edge52" class="edge">
<title>[root] output.public_dns_west&#45;&gt;[root] module.teste.output.public_dns_west</title>
<path fill="none" stroke="black" d="M4797.74,-217.32C4794.79,-216.87 4791.87,-216.43 4789,-216 4699.97,-202.81 4599.98,-190.08 4520.02,-180.41"/>
<polygon fill="black" stroke="black" points="4520.22,-176.91 4509.87,-179.18 4519.38,-183.86 4520.22,-176.91"/>
</g>
<!-- [root] var.blocks -->
<g id="node28" class="node">
<title>[root] var.blocks</title>
<polygon fill="none" stroke="black" points="4174,-252 4088,-252 4088,-216 4180,-216 4180,-246 4174,-252"/>
<polyline fill="none" stroke="black" points="4174,-252 4174,-246 "/>
<polyline fill="none" stroke="black" points="4180,-246 4174,-246 "/>
<text text-anchor="middle" x="4134" y="-230.3" font-family="Times,serif" font-size="14.00">var.blocks</text>
</g>
<!-- [root] var.dynatrace_install_token -->
<g id="node29" class="node">
<title>[root] var.dynatrace_install_token</title>
<polygon fill="none" stroke="black" points="4411.5,-252 4198.5,-252 4198.5,-216 4417.5,-216 4417.5,-246 4411.5,-252"/>
<polyline fill="none" stroke="black" points="4411.5,-252 4411.5,-246 "/>
<polyline fill="none" stroke="black" points="4417.5,-246 4411.5,-246 "/>
<text text-anchor="middle" x="4308" y="-230.3" font-family="Times,serif" font-size="14.00">var.dynatrace_install_token</text>
</g>
<!-- [root] var.dynatrace_tenant_URL -->
<g id="node30" class="node">
<title>[root] var.dynatrace_tenant_URL</title>
<polygon fill="none" stroke="black" points="4626.5,-252 4435.5,-252 4435.5,-216 4632.5,-216 4632.5,-246 4626.5,-252"/>
<polyline fill="none" stroke="black" points="4626.5,-252 4626.5,-246 "/>
<polyline fill="none" stroke="black" points="4632.5,-246 4626.5,-246 "/>
<text text-anchor="middle" x="4534" y="-230.3" font-family="Times,serif" font-size="14.00">var.dynatrace_tenant_URL</text>
</g>
<!-- [root] var.hash_commit -->
<g id="node31" class="node">
<title>[root] var.hash_commit</title>
<polygon fill="none" stroke="black" points="4773.5,-252 4650.5,-252 4650.5,-216 4779.5,-216 4779.5,-246 4773.5,-252"/>
<polyline fill="none" stroke="black" points="4773.5,-252 4773.5,-246 "/>
<polyline fill="none" stroke="black" points="4779.5,-246 4773.5,-246 "/>
<text text-anchor="middle" x="4715" y="-230.3" font-family="Times,serif" font-size="14.00">var.hash_commit</text>
</g>
<!-- [root] var.private_key_path -->
<g id="node32" class="node">
<title>[root] var.private_key_path</title>
<polygon fill="none" stroke="black" points="3532.5,-252 3371.5,-252 3371.5,-216 3538.5,-216 3538.5,-246 3532.5,-252"/>
<polyline fill="none" stroke="black" points="3532.5,-252 3532.5,-246 "/>
<polyline fill="none" stroke="black" points="3538.5,-246 3532.5,-246 "/>
<text text-anchor="middle" x="3455" y="-230.3" font-family="Times,serif" font-size="14.00">var.private_key_path</text>
</g>
<!-- [root] var.public_key_path -->
<g id="node33" class="node">
<title>[root] var.public_key_path</title>
<polygon fill="none" stroke="black" points="3709.5,-252 3556.5,-252 3556.5,-216 3715.5,-216 3715.5,-246 3709.5,-252"/>
<polyline fill="none" stroke="black" points="3709.5,-252 3709.5,-246 "/>
<polyline fill="none" stroke="black" points="3715.5,-246 3709.5,-246 "/>
<text text-anchor="middle" x="3636" y="-230.3" font-family="Times,serif" font-size="14.00">var.public_key_path</text>
</g>
<!-- [root] var.ubuntu_image_name -->
<g id="node34" class="node">
<title>[root] var.ubuntu_image_name</title>
<polygon fill="none" stroke="black" points="3902,-252 3734,-252 3734,-216 3908,-216 3908,-246 3902,-252"/>
<polyline fill="none" stroke="black" points="3902,-252 3902,-246 "/>
<polyline fill="none" stroke="black" points="3908,-246 3902,-246 "/>
<text text-anchor="middle" x="3821" y="-230.3" font-family="Times,serif" font-size="14.00">var.ubuntu_image_name</text>
</g>
<!-- [root] meta.count&#45;boundary (EachMode fixup) -->
<g id="node35" class="node">
<title>[root] meta.count&#45;boundary (EachMode fixup)</title>
<ellipse fill="none" stroke="black" cx="3821" cy="-306" rx="220.16" ry="18"/>
<text text-anchor="middle" x="3821" y="-302.3" font-family="Times,serif" font-size="14.00">[root] meta.count&#45;boundary (EachMode fixup)</text>
</g>
<!-- [root] meta.count&#45;boundary (EachMode fixup)&#45;&gt;[root] aws_dynamodb_table.dynamo_state_lock (prepare state) -->
<g id="edge2" class="edge">
<title>[root] meta.count&#45;boundary (EachMode fixup)&#45;&gt;[root] aws_dynamodb_table.dynamo_state_lock (prepare state)</title>
<path fill="none" stroke="black" d="M3667.78,-293.02C3544.61,-283.13 3366.84,-268.28 3201.12,-252.1"/>
<polygon fill="black" stroke="black" points="3201.02,-248.57 3190.73,-251.08 3200.34,-255.54 3201.02,-248.57"/>
</g>
<!-- [root] meta.count&#45;boundary (EachMode fixup)&#45;&gt;[root] module.teste.aws_internet_gateway.web_apps (prepare state) -->
<g id="edge3" class="edge">
<title>[root] meta.count&#45;boundary (EachMode fixup)&#45;&gt;[root] module.teste.aws_internet_gateway.web_apps (prepare state)</title>
<path fill="none" stroke="black" d="M3604.28,-302.73C2901.01,-295.22 707.21,-270.64 342.26,-252.02"/>
<polygon fill="black" stroke="black" points="342.41,-248.52 332.24,-251.48 342.04,-255.51 342.41,-248.52"/>
</g>
<!-- [root] meta.count&#45;boundary (EachMode fixup)&#45;&gt;[root] module.teste.aws_key_pair.terraform_resource_kp (prepare state) -->
<g id="edge4" class="edge">
<title>[root] meta.count&#45;boundary (EachMode fixup)&#45;&gt;[root] module.teste.aws_key_pair.terraform_resource_kp (prepare state)</title>
<path fill="none" stroke="black" d="M3605.52,-302.19C2957.89,-293.63 1054.04,-267.52 729.63,-252.04"/>
<polygon fill="black" stroke="black" points="729.79,-248.54 719.63,-251.54 729.44,-255.53 729.79,-248.54"/>
</g>
<!-- [root] meta.count&#45;boundary (EachMode fixup)&#45;&gt;[root] module.teste.aws_key_pair.terraform_resource_kp_west (prepare state) -->
<g id="edge5" class="edge">
<title>[root] meta.count&#45;boundary (EachMode fixup)&#45;&gt;[root] module.teste.aws_key_pair.terraform_resource_kp_west (prepare state)</title>
<path fill="none" stroke="black" d="M4021.28,-298.5C4287.88,-289.55 4774,-272.24 5189,-252 5213.37,-250.81 5238.9,-249.46 5264.26,-248.06"/>
<polygon fill="black" stroke="black" points="5264.56,-251.54 5274.35,-247.49 5264.17,-244.55 5264.56,-251.54"/>
</g>
<!-- [root] meta.count&#45;boundary (EachMode fixup)&#45;&gt;[root] module.teste.aws_route_table.route_web_apps (prepare state) -->
<g id="edge6" class="edge">
<title>[root] meta.count&#45;boundary (EachMode fixup)&#45;&gt;[root] module.teste.aws_route_table.route_web_apps (prepare state)</title>
<path fill="none" stroke="black" d="M3603.89,-302.91C3050.21,-297.23 1594.23,-280.11 1086.91,-252.01"/>
<polygon fill="black" stroke="black" points="1086.75,-248.5 1076.57,-251.43 1086.36,-255.49 1086.75,-248.5"/>
</g>
<!-- [root] meta.count&#45;boundary (EachMode fixup)&#45;&gt;[root] module.teste.aws_route_table_association.web_app_teste_route_web_apps (prepare state) -->
<g id="edge7" class="edge">
<title>[root] meta.count&#45;boundary (EachMode fixup)&#45;&gt;[root] module.teste.aws_route_table_association.web_app_teste_route_web_apps (prepare state)</title>
<path fill="none" stroke="black" d="M3604.79,-302.42C3214.49,-297.16 2366.03,-283.04 1639.47,-252.05"/>
<polygon fill="black" stroke="black" points="1639.46,-248.55 1629.32,-251.62 1639.16,-255.54 1639.46,-248.55"/>
</g>
<!-- [root] meta.count&#45;boundary (EachMode fixup)&#45;&gt;[root] module.teste.aws_security_group.allow_remote_communication (prepare state) -->
<g id="edge8" class="edge">
<title>[root] meta.count&#45;boundary (EachMode fixup)&#45;&gt;[root] module.teste.aws_security_group.allow_remote_communication (prepare state)</title>
<path fill="none" stroke="black" d="M4036.02,-301.97C4382.01,-296.41 5083.98,-282.3 5689.69,-252.05"/>
<polygon fill="black" stroke="black" points="5690.13,-255.53 5699.94,-251.54 5689.78,-248.54 5690.13,-255.53"/>
</g>
<!-- [root] meta.count&#45;boundary (EachMode fixup)&#45;&gt;[root] module.teste.aws_security_group.allow_ssh (prepare state) -->
<g id="edge9" class="edge">
<title>[root] meta.count&#45;boundary (EachMode fixup)&#45;&gt;[root] module.teste.aws_security_group.allow_ssh (prepare state)</title>
<path fill="none" stroke="black" d="M3602.2,-303.67C3259.02,-300.48 2573.1,-289.6 1981.46,-252.07"/>
<polygon fill="black" stroke="black" points="1981.65,-248.57 1971.44,-251.43 1981.2,-255.56 1981.65,-248.57"/>
</g>
<!-- [root] meta.count&#45;boundary (EachMode fixup)&#45;&gt;[root] module.teste.aws_security_group.allow_ssh_west (prepare state) -->
<g id="edge10" class="edge">
<title>[root] meta.count&#45;boundary (EachMode fixup)&#45;&gt;[root] module.teste.aws_security_group.allow_ssh_west (prepare state)</title>
<path fill="none" stroke="black" d="M4036.11,-301.96C4529.45,-294.7 5732.02,-275.24 6159.73,-252.04"/>
<polygon fill="black" stroke="black" points="6160.21,-255.52 6170,-251.47 6159.82,-248.53 6160.21,-255.52"/>
</g>
<!-- [root] meta.count&#45;boundary (EachMode fixup)&#45;&gt;[root] module.teste.aws_subnet.web_app_teste (prepare state) -->
<g id="edge11" class="edge">
<title>[root] meta.count&#45;boundary (EachMode fixup)&#45;&gt;[root] module.teste.aws_subnet.web_app_teste (prepare state)</title>
<path fill="none" stroke="black" d="M3604.56,-302.53C3310.16,-298.03 2766.87,-285.68 2293.48,-252.07"/>
<polygon fill="black" stroke="black" points="2293.59,-248.57 2283.36,-251.35 2293.09,-255.56 2293.59,-248.57"/>
</g>
<!-- [root] meta.count&#45;boundary (EachMode fixup)&#45;&gt;[root] module.teste.aws_vpc.web_apps (prepare state) -->
<g id="edge12" class="edge">
<title>[root] meta.count&#45;boundary (EachMode fixup)&#45;&gt;[root] module.teste.aws_vpc.web_apps (prepare state)</title>
<path fill="none" stroke="black" d="M3613.34,-299.96C3367.05,-293.09 2944.22,-278.5 2582,-252 2570.18,-251.14 2557.89,-250.11 2545.6,-248.99"/>
<polygon fill="black" stroke="black" points="2545.56,-245.47 2535.28,-248.03 2544.91,-252.44 2545.56,-245.47"/>
</g>
<!-- [root] meta.count&#45;boundary (EachMode fixup)&#45;&gt;[root] module.teste.data.aws_ami.gomex_image (prepare state) -->
<g id="edge13" class="edge">
<title>[root] meta.count&#45;boundary (EachMode fixup)&#45;&gt;[root] module.teste.data.aws_ami.gomex_image (prepare state)</title>
<path fill="none" stroke="black" d="M3630.39,-296.97C3445.22,-288.5 3155.88,-273.51 2895.4,-252.09"/>
<polygon fill="black" stroke="black" points="2895.62,-248.6 2885.37,-251.26 2895.05,-255.58 2895.62,-248.6"/>
</g>
<!-- [root] meta.count&#45;boundary (EachMode fixup)&#45;&gt;[root] module.teste.data.aws_ami.west_ubuntu (prepare state) -->
<g id="edge14" class="edge">
<title>[root] meta.count&#45;boundary (EachMode fixup)&#45;&gt;[root] module.teste.data.aws_ami.west_ubuntu (prepare state)</title>
<path fill="none" stroke="black" d="M4035.6,-301.92C4626.57,-293.29 6252.48,-268.44 6539.25,-252.04"/>
<polygon fill="black" stroke="black" points="6539.87,-255.51 6549.64,-251.41 6539.45,-248.52 6539.87,-255.51"/>
</g>
<!-- [root] meta.count&#45;boundary (EachMode fixup)&#45;&gt;[root] output.ip_address -->
<g id="edge15" class="edge">
<title>[root] meta.count&#45;boundary (EachMode fixup)&#45;&gt;[root] output.ip_address</title>
<path fill="none" stroke="black" d="M3680.17,-292.12C3591.78,-283.23 3475.26,-270.04 3363.47,-252.16"/>
<polygon fill="black" stroke="black" points="3363.79,-248.67 3353.36,-250.53 3362.68,-255.58 3363.79,-248.67"/>
</g>
<!-- [root] meta.count&#45;boundary (EachMode fixup)&#45;&gt;[root] output.ip_address_west -->
<g id="edge16" class="edge">
<title>[root] meta.count&#45;boundary (EachMode fixup)&#45;&gt;[root] output.ip_address_west</title>
<path fill="none" stroke="black" d="M4038.49,-303.12C4271.22,-299.26 4651.25,-287.66 4987.83,-252.04"/>
<polygon fill="black" stroke="black" points="4988.21,-255.52 4997.78,-250.98 4987.46,-248.56 4988.21,-255.52"/>
</g>
<!-- [root] meta.count&#45;boundary (EachMode fixup)&#45;&gt;[root] output.public_dns -->
<g id="edge17" class="edge">
<title>[root] meta.count&#45;boundary (EachMode fixup)&#45;&gt;[root] output.public_dns</title>
<path fill="none" stroke="black" d="M3863.4,-288.23C3887.99,-278.51 3919.17,-266.17 3945.33,-255.83"/>
<polygon fill="black" stroke="black" points="3946.71,-259.05 3954.72,-252.12 3944.13,-252.54 3946.71,-259.05"/>
</g>
<!-- [root] meta.count&#45;boundary (EachMode fixup)&#45;&gt;[root] output.public_dns_west -->
<g id="edge18" class="edge">
<title>[root] meta.count&#45;boundary (EachMode fixup)&#45;&gt;[root] output.public_dns_west</title>
<path fill="none" stroke="black" d="M4030.7,-300.39C4224.65,-294.53 4521.06,-281.49 4787.51,-252.09"/>
<polygon fill="black" stroke="black" points="4788.22,-255.53 4797.77,-250.95 4787.45,-248.58 4788.22,-255.53"/>
</g>
<!-- [root] meta.count&#45;boundary (EachMode fixup)&#45;&gt;[root] var.blocks -->
<g id="edge19" class="edge">
<title>[root] meta.count&#45;boundary (EachMode fixup)&#45;&gt;[root] var.blocks</title>
<path fill="none" stroke="black" d="M3907.48,-289.41C3955.25,-280.29 4015.79,-267.88 4077.9,-252.16"/>
<polygon fill="black" stroke="black" points="4079.06,-255.48 4087.88,-249.61 4077.32,-248.7 4079.06,-255.48"/>
</g>
<!-- [root] meta.count&#45;boundary (EachMode fixup)&#45;&gt;[root] var.dynatrace_install_token -->
<g id="edge20" class="edge">
<title>[root] meta.count&#45;boundary (EachMode fixup)&#45;&gt;[root] var.dynatrace_install_token</title>
<path fill="none" stroke="black" d="M3924.58,-290.11C4001.71,-279.03 4107.2,-263.86 4188,-252.25"/>
<polygon fill="black" stroke="black" points="4188.83,-255.66 4198.23,-250.78 4187.84,-248.74 4188.83,-255.66"/>
</g>
<!-- [root] meta.count&#45;boundary (EachMode fixup)&#45;&gt;[root] var.dynatrace_tenant_URL -->
<g id="edge21" class="edge">
<title>[root] meta.count&#45;boundary (EachMode fixup)&#45;&gt;[root] var.dynatrace_tenant_URL</title>
<path fill="none" stroke="black" d="M3983.41,-293.82C4102.78,-284.87 4269.14,-270.91 4425.19,-252.05"/>
<polygon fill="black" stroke="black" points="4425.95,-255.48 4435.45,-250.8 4425.1,-248.53 4425.95,-255.48"/>
</g>
<!-- [root] meta.count&#45;boundary (EachMode fixup)&#45;&gt;[root] var.hash_commit -->
<g id="edge22" class="edge">
<title>[root] meta.count&#45;boundary (EachMode fixup)&#45;&gt;[root] var.hash_commit</title>
<path fill="none" stroke="black" d="M4031.79,-300.71C4195.4,-295.18 4427.87,-282.48 4640.05,-251.99"/>
<polygon fill="black" stroke="black" points="4640.75,-255.42 4650.14,-250.52 4639.74,-248.5 4640.75,-255.42"/>
</g>
<!-- [root] meta.count&#45;boundary (EachMode fixup)&#45;&gt;[root] var.private_key_path -->
<g id="edge23" class="edge">
<title>[root] meta.count&#45;boundary (EachMode fixup)&#45;&gt;[root] var.private_key_path</title>
<path fill="none" stroke="black" d="M3738.86,-289.29C3682.48,-278.51 3607.52,-264.17 3548.79,-252.94"/>
<polygon fill="black" stroke="black" points="3549.24,-249.46 3538.77,-251.02 3547.93,-256.34 3549.24,-249.46"/>
</g>
<!-- [root] meta.count&#45;boundary (EachMode fixup)&#45;&gt;[root] var.public_key_path -->
<g id="edge24" class="edge">
<title>[root] meta.count&#45;boundary (EachMode fixup)&#45;&gt;[root] var.public_key_path</title>
<path fill="none" stroke="black" d="M3776.69,-288.23C3750.87,-278.46 3718.1,-266.07 3690.69,-255.69"/>
<polygon fill="black" stroke="black" points="3691.83,-252.38 3681.24,-252.12 3689.35,-258.93 3691.83,-252.38"/>
</g>
<!-- [root] meta.count&#45;boundary (EachMode fixup)&#45;&gt;[root] var.ubuntu_image_name -->
<g id="edge25" class="edge">
<title>[root] meta.count&#45;boundary (EachMode fixup)&#45;&gt;[root] var.ubuntu_image_name</title>
<path fill="none" stroke="black" d="M3821,-287.7C3821,-279.98 3821,-270.71 3821,-262.11"/>
<polygon fill="black" stroke="black" points="3824.5,-262.1 3821,-252.1 3817.5,-262.1 3824.5,-262.1"/>
</g>
<!-- [root] provider.aws (close) -->
<g id="node38" class="node">
<title>[root] provider.aws (close)</title>
<ellipse fill="none" stroke="black" cx="2136" cy="-306" rx="142.17" ry="18"/>
<text text-anchor="middle" x="2136" y="-302.3" font-family="Times,serif" font-size="14.00">[root] provider.aws (close)</text>
</g>
<!-- [root] provider.aws (close)&#45;&gt;[root] aws_dynamodb_table.dynamo_state_lock (prepare state) -->
<g id="edge53" class="edge">
<title>[root] provider.aws (close)&#45;&gt;[root] aws_dynamodb_table.dynamo_state_lock (prepare state)</title>
<path fill="none" stroke="black" d="M2262.53,-297.74C2410.92,-288.86 2664.56,-272.56 2893.1,-252.06"/>
<polygon fill="black" stroke="black" points="2893.63,-255.53 2903.27,-251.14 2893,-248.55 2893.63,-255.53"/>
</g>
<!-- [root] provider.aws (close)&#45;&gt;[root] module.teste.aws_instance.web (prepare state) -->
<g id="edge54" class="edge">
<title>[root] provider.aws (close)&#45;&gt;[root] module.teste.aws_instance.web (prepare state)</title>
<path fill="none" stroke="black" d="M2260.78,-297.27C2361.88,-289.46 2495.25,-275.17 2544,-252 2565.01,-242.01 2560.93,-225.87 2582,-216 2744.29,-139.98 3267.44,-107.4 3511.46,-96.07"/>
<polygon fill="black" stroke="black" points="3511.97,-99.55 3521.8,-95.6 3511.65,-92.56 3511.97,-99.55"/>
</g>
<!-- [root] provider.aws (close)&#45;&gt;[root] module.teste.aws_internet_gateway.web_apps (prepare state) -->
<g id="edge55" class="edge">
<title>[root] provider.aws (close)&#45;&gt;[root] module.teste.aws_internet_gateway.web_apps (prepare state)</title>
<path fill="none" stroke="black" d="M1994.48,-304.06C1692.77,-301.34 963.79,-291.01 342.3,-252.06"/>
<polygon fill="black" stroke="black" points="342.45,-248.56 332.25,-251.42 342.01,-255.54 342.45,-248.56"/>
</g>
<!-- [root] provider.aws (close)&#45;&gt;[root] module.teste.aws_key_pair.terraform_resource_kp (prepare state) -->
<g id="edge56" class="edge">
<title>[root] provider.aws (close)&#45;&gt;[root] module.teste.aws_key_pair.terraform_resource_kp (prepare state)</title>
<path fill="none" stroke="black" d="M1996.99,-302.08C1746,-296.3 1200.27,-281.39 729.68,-252.09"/>
<polygon fill="black" stroke="black" points="729.83,-248.59 719.63,-251.46 729.39,-255.58 729.83,-248.59"/>
</g>
<!-- [root] provider.aws (close)&#45;&gt;[root] module.teste.aws_route_table.route_web_apps (prepare state) -->
<g id="edge57" class="edge">
<title>[root] provider.aws (close)&#45;&gt;[root] module.teste.aws_route_table.route_web_apps (prepare state)</title>
<path fill="none" stroke="black" d="M2001.21,-300.11C1803.32,-292.49 1422.28,-276.21 1086.98,-252.05"/>
<polygon fill="black" stroke="black" points="1086.8,-248.53 1076.58,-251.3 1086.3,-255.51 1086.8,-248.53"/>
</g>
<!-- [root] provider.aws (close)&#45;&gt;[root] module.teste.aws_route_table_association.web_app_teste_route_web_apps (prepare state) -->
<g id="edge58" class="edge">
<title>[root] provider.aws (close)&#45;&gt;[root] module.teste.aws_route_table_association.web_app_teste_route_web_apps (prepare state)</title>
<path fill="none" stroke="black" d="M2023.87,-294.86C1902.74,-283.9 1707.38,-266.24 1560.23,-252.93"/>
<polygon fill="black" stroke="black" points="1560.44,-249.43 1550.16,-252.02 1559.81,-256.4 1560.44,-249.43"/>
</g>
<!-- [root] provider.aws (close)&#45;&gt;[root] module.teste.aws_security_group.allow_ssh (prepare state) -->
<g id="edge59" class="edge">
<title>[root] provider.aws (close)&#45;&gt;[root] module.teste.aws_security_group.allow_ssh (prepare state)</title>
<path fill="none" stroke="black" d="M2067.05,-290.24C2018.03,-279.75 1951.72,-265.55 1898.6,-254.18"/>
<polygon fill="black" stroke="black" points="1899.01,-250.69 1888.5,-252.02 1897.54,-257.53 1899.01,-250.69"/>
</g>
<!-- [root] provider.aws (close)&#45;&gt;[root] module.teste.aws_subnet.web_app_teste (prepare state) -->
<g id="edge60" class="edge">
<title>[root] provider.aws (close)&#45;&gt;[root] module.teste.aws_subnet.web_app_teste (prepare state)</title>
<path fill="none" stroke="black" d="M2136,-287.7C2136,-279.98 2136,-270.71 2136,-262.11"/>
<polygon fill="black" stroke="black" points="2139.5,-262.1 2136,-252.1 2132.5,-262.1 2139.5,-262.1"/>
</g>
<!-- [root] provider.aws (close)&#45;&gt;[root] module.teste.aws_vpc.web_apps (prepare state) -->
<g id="edge61" class="edge">
<title>[root] provider.aws (close)&#45;&gt;[root] module.teste.aws_vpc.web_apps (prepare state)</title>
<path fill="none" stroke="black" d="M2197.54,-289.72C2239.2,-279.38 2294.6,-265.63 2339.44,-254.5"/>
<polygon fill="black" stroke="black" points="2340.56,-257.83 2349.42,-252.02 2338.87,-251.04 2340.56,-257.83"/>
</g>
<!-- [root] provider.aws (close)&#45;&gt;[root] module.teste.data.aws_ami.gomex_image (prepare state) -->
<g id="edge62" class="edge">
<title>[root] provider.aws (close)&#45;&gt;[root] module.teste.data.aws_ami.gomex_image (prepare state)</title>
<path fill="none" stroke="black" d="M2236.76,-293.28C2330.89,-282.34 2472.83,-265.83 2581.67,-253.18"/>
<polygon fill="black" stroke="black" points="2582.23,-256.64 2591.76,-252 2581.42,-249.68 2582.23,-256.64"/>
</g>
<!-- [root] provider.aws.oregon (close) -->
<g id="node39" class="node">
<title>[root] provider.aws.oregon (close)</title>
<ellipse fill="none" stroke="black" cx="6138" cy="-306" rx="176.57" ry="18"/>
<text text-anchor="middle" x="6138" y="-302.3" font-family="Times,serif" font-size="14.00">[root] provider.aws.oregon (close)</text>
</g>
<!-- [root] provider.aws.oregon (close)&#45;&gt;[root] module.teste.aws_instance.west_web (prepare state) -->
<g id="edge63" class="edge">
<title>[root] provider.aws.oregon (close)&#45;&gt;[root] module.teste.aws_instance.west_web (prepare state)</title>
<path fill="none" stroke="black" d="M6314.11,-304.19C6513.96,-301.4 6817.03,-290.74 6853,-252 6863.89,-240.28 6863.91,-227.7 6853,-216 6742.91,-97.89 5628.85,-89.32 5224.03,-90.15"/>
<polygon fill="black" stroke="black" points="5224,-86.65 5214.01,-90.18 5224.02,-93.65 5224,-86.65"/>
</g>
<!-- [root] provider.aws.oregon (close)&#45;&gt;[root] module.teste.aws_key_pair.terraform_resource_kp_west (prepare state) -->
<g id="edge64" class="edge">
<title>[root] provider.aws.oregon (close)&#45;&gt;[root] module.teste.aws_key_pair.terraform_resource_kp_west (prepare state)</title>
<path fill="none" stroke="black" d="M6020.39,-292.53C5917.03,-281.56 5765.36,-265.48 5648.66,-253.1"/>
<polygon fill="black" stroke="black" points="5648.87,-249.6 5638.55,-252.03 5648.13,-256.56 5648.87,-249.6"/>
</g>
<!-- [root] provider.aws.oregon (close)&#45;&gt;[root] module.teste.aws_security_group.allow_remote_communication (prepare state) -->
<g id="edge65" class="edge">
<title>[root] provider.aws.oregon (close)&#45;&gt;[root] module.teste.aws_security_group.allow_remote_communication (prepare state)</title>
<path fill="none" stroke="black" d="M6088.56,-288.68C6058.4,-278.72 6019.6,-265.91 5987.47,-255.3"/>
<polygon fill="black" stroke="black" points="5988.33,-251.89 5977.73,-252.08 5986.13,-258.54 5988.33,-251.89"/>
</g>
<!-- [root] provider.aws.oregon (close)&#45;&gt;[root] module.teste.aws_security_group.allow_ssh_west (prepare state) -->
<g id="edge66" class="edge">
<title>[root] provider.aws.oregon (close)&#45;&gt;[root] module.teste.aws_security_group.allow_ssh_west (prepare state)</title>
<path fill="none" stroke="black" d="M6187.67,-288.68C6217.97,-278.72 6256.95,-265.91 6289.24,-255.3"/>
<polygon fill="black" stroke="black" points="6290.61,-258.53 6299.02,-252.08 6288.43,-251.88 6290.61,-258.53"/>
</g>
<!-- [root] provider.aws.oregon (close)&#45;&gt;[root] module.teste.data.aws_ami.west_ubuntu (prepare state) -->
<g id="edge67" class="edge">
<title>[root] provider.aws.oregon (close)&#45;&gt;[root] module.teste.data.aws_ami.west_ubuntu (prepare state)</title>
<path fill="none" stroke="black" d="M6244.79,-291.63C6331.64,-280.75 6455.07,-265.3 6551.04,-253.28"/>
<polygon fill="black" stroke="black" points="6551.64,-256.73 6561.13,-252.01 6550.77,-249.78 6551.64,-256.73"/>
</g>
<!-- [root] provisioner.local&#45;exec (close) -->
<g id="node40" class="node">
<title>[root] provisioner.local&#45;exec (close)</title>
<ellipse fill="none" stroke="black" cx="5427" cy="-306" rx="191.17" ry="18"/>
<text text-anchor="middle" x="5427" y="-302.3" font-family="Times,serif" font-size="14.00">[root] provisioner.local&#45;exec (close)</text>
</g>
<!-- [root] provisioner.local&#45;exec (close)&#45;&gt;[root] module.teste.aws_instance.west_web (prepare state) -->
<g id="edge68" class="edge">
<title>[root] provisioner.local&#45;exec (close)&#45;&gt;[root] module.teste.aws_instance.west_web (prepare state)</title>
<path fill="none" stroke="black" d="M5335.24,-290.2C5310.25,-282.35 5284.89,-270.36 5266,-252 5229.4,-216.43 5263.17,-180 5227,-144 5212.62,-129.69 5194.12,-119.22 5175.08,-111.57"/>
<polygon fill="black" stroke="black" points="5176.3,-108.29 5165.71,-108.04 5173.83,-114.84 5176.3,-108.29"/>
</g>
<!-- [root] provisioner.remote&#45;exec (close) -->
<g id="node41" class="node">
<title>[root] provisioner.remote&#45;exec (close)</title>
<ellipse fill="none" stroke="black" cx="4724" cy="-162" rx="196.07" ry="18"/>
<text text-anchor="middle" x="4724" y="-158.3" font-family="Times,serif" font-size="14.00">[root] provisioner.remote&#45;exec (close)</text>
</g>
<!-- [root] provisioner.remote&#45;exec (close)&#45;&gt;[root] module.teste.aws_instance.web (prepare state) -->
<g id="edge69" class="edge">
<title>[root] provisioner.remote&#45;exec (close)&#45;&gt;[root] module.teste.aws_instance.web (prepare state)</title>
<path fill="none" stroke="black" d="M4585.8,-149.17C4563.15,-147.35 4539.92,-145.57 4518,-144 4250.74,-124.92 3937.44,-107.12 3766.4,-97.8"/>
<polygon fill="black" stroke="black" points="3766.53,-94.3 3756.35,-97.25 3766.15,-101.29 3766.53,-94.3"/>
</g>
<!-- [root] provisioner.remote&#45;exec (close)&#45;&gt;[root] module.teste.aws_instance.west_web (prepare state) -->
<g id="edge70" class="edge">
<title>[root] provisioner.remote&#45;exec (close)&#45;&gt;[root] module.teste.aws_instance.west_web (prepare state)</title>
<path fill="none" stroke="black" d="M4802.56,-145.46C4855.5,-135 4925.67,-121.12 4981.93,-110"/>
<polygon fill="black" stroke="black" points="4982.78,-113.4 4991.91,-108.02 4981.42,-106.53 4982.78,-113.4"/>
</g>
<!-- [root] root -->
<g id="node42" class="node">
<title>[root] root</title>
<ellipse fill="none" stroke="black" cx="5208" cy="-378" rx="64.19" ry="18"/>
<text text-anchor="middle" x="5208" y="-374.3" font-family="Times,serif" font-size="14.00">[root] root</text>
</g>
<!-- [root] root&#45;&gt;[root] meta.count&#45;boundary (EachMode fixup) -->
<g id="edge71" class="edge">
<title>[root] root&#45;&gt;[root] meta.count&#45;boundary (EachMode fixup)</title>
<path fill="none" stroke="black" d="M5145.25,-373.83C4947.29,-363.84 4330.26,-332.7 4013.25,-316.7"/>
<polygon fill="black" stroke="black" points="4013.19,-313.2 4003.03,-316.19 4012.84,-320.19 4013.19,-313.2"/>
</g>
<!-- [root] root&#45;&gt;[root] provider.aws (close) -->
<g id="edge72" class="edge">
<title>[root] root&#45;&gt;[root] provider.aws (close)</title>
<path fill="none" stroke="black" d="M5144.19,-375.55C4768.15,-366.98 2838.83,-323.02 2284.88,-310.39"/>
<polygon fill="black" stroke="black" points="2284.91,-306.89 2274.83,-310.16 2284.75,-313.89 2284.91,-306.89"/>
</g>
<!-- [root] root&#45;&gt;[root] provider.aws.oregon (close) -->
<g id="edge73" class="edge">
<title>[root] root&#45;&gt;[root] provider.aws.oregon (close)</title>
<path fill="none" stroke="black" d="M5269.38,-372.38C5414.69,-361.44 5783.04,-333.72 5990.38,-318.11"/>
<polygon fill="black" stroke="black" points="5990.73,-321.6 6000.43,-317.35 5990.2,-314.61 5990.73,-321.6"/>
</g>
<!-- [root] root&#45;&gt;[root] provisioner.local&#45;exec (close) -->
<g id="edge74" class="edge">
<title>[root] root&#45;&gt;[root] provisioner.local&#45;exec (close)</title>
<path fill="none" stroke="black" d="M5248.68,-364C5281.61,-353.47 5328.5,-338.48 5365.94,-326.52"/>
<polygon fill="black" stroke="black" points="5367.27,-329.77 5375.73,-323.39 5365.14,-323.1 5367.27,-329.77"/>
</g>
<!-- [root] root&#45;&gt;[root] provisioner.remote&#45;exec (close) -->
<g id="edge75" class="edge">
<title>[root] root&#45;&gt;[root] provisioner.remote&#45;exec (close)</title>
<path fill="none" stroke="black" d="M5212,-360.02C5218.65,-327.12 5227.69,-254.53 5189,-216 5177.7,-204.74 5005.29,-187.36 4873.68,-175.59"/>
<polygon fill="black" stroke="black" points="4873.76,-172.08 4863.48,-174.68 4873.13,-179.06 4873.76,-172.08"/>
</g>
</g>
</svg>
