<?xml version="1.0" encoding="UTF-8" standalone="no"?>
<!DOCTYPE svg PUBLIC "-//W3C//DTD SVG 1.1//EN"
 "http://www.w3.org/Graphics/SVG/1.1/DTD/svg11.dtd">
<!-- Generated by graphviz version 2.42.3 ()
 -->
<!-- Title: %3 Pages: 1 -->
<svg width="3233pt" height="404pt"
 viewBox="0.00 0.00 3232.67 404.00" xmlns="http://www.w3.org/2000/svg" xmlns:xlink="http://www.w3.org/1999/xlink">
<g id="graph0" class="graph" transform="scale(1 1) rotate(0) translate(4 400)">
<title>%3</title>
<polygon fill="white" stroke="transparent" points="-4,4 -4,-400 3228.67,-400 3228.67,4 -4,4"/>
<!-- [root] aws_dynamodb_table.dynamo_state_lock -->
<g id="node1" class="node">
<title>[root] aws_dynamodb_table.dynamo_state_lock</title>
<polygon fill="none" stroke="black" points="396.17,-324 109.17,-324 109.17,-288 396.17,-288 396.17,-324"/>
<text text-anchor="middle" x="252.67" y="-302.3" font-family="Times,serif" font-size="14.00">aws_dynamodb_table.dynamo_state_lock</text>
</g>
<!-- [root] provider.aws -->
<g id="node16" class="node">
<title>[root] provider.aws</title>
<polygon fill="none" stroke="black" points="892.67,-36 794.47,-18 892.67,0 990.87,-18 892.67,-36"/>
<text text-anchor="middle" x="892.67" y="-14.3" font-family="Times,serif" font-size="14.00">provider.aws</text>
</g>
<!-- [root] aws_dynamodb_table.dynamo_state_lock&#45;&gt;[root] provider.aws -->
<g id="edge1" class="edge">
<title>[root] aws_dynamodb_table.dynamo_state_lock&#45;&gt;[root] provider.aws</title>
<path fill="none" stroke="black" d="M178.63,-287.93C90.34,-263.97 -39.32,-215.17 11.67,-144 69.62,-63.11 126.21,-92.08 223.67,-72 421.49,-31.23 658.18,-21.38 790.37,-19.26"/>
<polygon fill="black" stroke="black" points="790.54,-22.76 800.49,-19.11 790.44,-15.76 790.54,-22.76"/>
</g>
<!-- [root] module.teste.aws_instance.web[0] -->
<g id="node2" class="node">
<title>[root] module.teste.aws_instance.web[0]</title>
<polygon fill="none" stroke="black" points="1412.67,-180 1178.67,-180 1178.67,-144 1412.67,-144 1412.67,-180"/>
<text text-anchor="middle" x="1295.67" y="-158.3" font-family="Times,serif" font-size="14.00">module.teste.aws_instance.web</text>
</g>
<!-- [root] module.teste.aws_instance.west_web[0] -->
<g id="node3" class="node">
<title>[root] module.teste.aws_instance.west_web[0]</title>
<polygon fill="none" stroke="black" points="1778.67,-108 1506.67,-108 1506.67,-72 1778.67,-72 1778.67,-108"/>
<text text-anchor="middle" x="1642.67" y="-86.3" font-family="Times,serif" font-size="14.00">module.teste.aws_instance.west_web</text>
</g>
<!-- [root] module.teste.aws_instance.web[0]&#45;&gt;[root] module.teste.aws_instance.west_web[0] -->
<g id="edge2" class="edge">
<title>[root] module.teste.aws_instance.web[0]&#45;&gt;[root] module.teste.aws_instance.west_web[0]</title>
<path fill="none" stroke="black" d="M1380.11,-143.97C1430.9,-133.72 1495.66,-120.66 1548.16,-110.07"/>
<polygon fill="black" stroke="black" points="1549.04,-113.46 1558.15,-108.05 1547.65,-106.6 1549.04,-113.46"/>
</g>
<!-- [root] module.teste.aws_instance.web[0]&#45;&gt;[root] provider.aws -->
<g id="edge3" class="edge">
<title>[root] module.teste.aws_instance.web[0]&#45;&gt;[root] provider.aws</title>
<path fill="none" stroke="black" d="M1259.82,-143.85C1218.84,-124.67 1149.43,-93.49 1087.67,-72 1039.81,-55.35 983.89,-40.62 944.23,-30.94"/>
<polygon fill="black" stroke="black" points="944.8,-27.48 934.26,-28.53 943.16,-34.28 944.8,-27.48"/>
</g>
<!-- [root] provider.aws.oregon -->
<g id="node17" class="node">
<title>[root] provider.aws.oregon</title>
<polygon fill="none" stroke="black" points="2306.67,-36 2160.38,-18 2306.67,0 2452.96,-18 2306.67,-36"/>
<text text-anchor="middle" x="2306.67" y="-14.3" font-family="Times,serif" font-size="14.00">provider.aws.oregon</text>
</g>
<!-- [root] module.teste.aws_instance.west_web[0]&#45;&gt;[root] provider.aws.oregon -->
<g id="edge4" class="edge">
<title>[root] module.teste.aws_instance.west_web[0]&#45;&gt;[root] provider.aws.oregon</title>
<path fill="none" stroke="black" d="M1779.04,-74.62C1911.91,-60.62 2109.74,-39.76 2221.59,-27.97"/>
<polygon fill="black" stroke="black" points="2222.23,-31.42 2231.81,-26.89 2221.5,-24.46 2222.23,-31.42"/>
</g>
<!-- [root] module.teste.aws_internet_gateway.web_apps -->
<g id="node4" class="node">
<title>[root] module.teste.aws_internet_gateway.web_apps</title>
<polygon fill="none" stroke="black" points="550.67,-252 218.67,-252 218.67,-216 550.67,-216 550.67,-252"/>
<text text-anchor="middle" x="384.67" y="-230.3" font-family="Times,serif" font-size="14.00">module.teste.aws_internet_gateway.web_apps</text>
</g>
<!-- [root] module.teste.aws_route_table.route_web_apps -->
<g id="node7" class="node">
<title>[root] module.teste.aws_route_table.route_web_apps</title>
<polygon fill="none" stroke="black" points="360.17,-180 21.17,-180 21.17,-144 360.17,-144 360.17,-180"/>
<text text-anchor="middle" x="190.67" y="-158.3" font-family="Times,serif" font-size="14.00">module.teste.aws_route_table.route_web_apps</text>
</g>
<!-- [root] module.teste.aws_internet_gateway.web_apps&#45;&gt;[root] module.teste.aws_route_table.route_web_apps -->
<g id="edge5" class="edge">
<title>[root] module.teste.aws_internet_gateway.web_apps&#45;&gt;[root] module.teste.aws_route_table.route_web_apps</title>
<path fill="none" stroke="black" d="M337.21,-215.88C310.1,-206.09 275.93,-193.77 247.41,-183.47"/>
<polygon fill="black" stroke="black" points="248.57,-180.17 237.97,-180.07 246.19,-186.75 248.57,-180.17"/>
</g>
<!-- [root] module.teste.aws_route_table_association.web_app_teste_route_web_apps -->
<g id="node8" class="node">
<title>[root] module.teste.aws_route_table_association.web_app_teste_route_web_apps</title>
<polygon fill="none" stroke="black" points="845.67,-108 311.67,-108 311.67,-72 845.67,-72 845.67,-108"/>
<text text-anchor="middle" x="578.67" y="-86.3" font-family="Times,serif" font-size="14.00">module.teste.aws_route_table_association.web_app_teste_route_web_apps</text>
</g>
<!-- [root] module.teste.aws_internet_gateway.web_apps&#45;&gt;[root] module.teste.aws_route_table_association.web_app_teste_route_web_apps -->
<g id="edge6" class="edge">
<title>[root] module.teste.aws_internet_gateway.web_apps&#45;&gt;[root] module.teste.aws_route_table_association.web_app_teste_route_web_apps</title>
<path fill="none" stroke="black" d="M408.07,-215.87C442.74,-190.5 507.83,-142.85 546.81,-114.32"/>
<polygon fill="black" stroke="black" points="549.18,-116.92 555.18,-108.19 545.05,-111.27 549.18,-116.92"/>
</g>
<!-- [root] module.teste.aws_internet_gateway.web_apps&#45;&gt;[root] provider.aws -->
<g id="edge7" class="edge">
<title>[root] module.teste.aws_internet_gateway.web_apps&#45;&gt;[root] provider.aws</title>
<path fill="none" stroke="black" d="M385.77,-215.92C386.14,-196.66 384,-165.27 368.67,-144 349.13,-116.9 319.73,-136.73 302.67,-108 294.5,-94.24 291.87,-83.81 302.67,-72 335.32,-36.28 638.97,-24.43 797.41,-20.67"/>
<polygon fill="black" stroke="black" points="797.72,-24.16 807.64,-20.43 797.56,-17.16 797.72,-24.16"/>
</g>
<!-- [root] module.teste.aws_key_pair.terraform_resource_kp -->
<g id="node5" class="node">
<title>[root] module.teste.aws_key_pair.terraform_resource_kp</title>
<polygon fill="none" stroke="black" points="1706.17,-252 1337.17,-252 1337.17,-216 1706.17,-216 1706.17,-252"/>
<text text-anchor="middle" x="1521.67" y="-230.3" font-family="Times,serif" font-size="14.00">module.teste.aws_key_pair.terraform_resource_kp</text>
</g>
<!-- [root] module.teste.aws_key_pair.terraform_resource_kp&#45;&gt;[root] module.teste.aws_instance.web[0] -->
<g id="edge8" class="edge">
<title>[root] module.teste.aws_key_pair.terraform_resource_kp&#45;&gt;[root] module.teste.aws_instance.web[0]</title>
<path fill="none" stroke="black" d="M1466.67,-215.97C1434.68,-206.06 1394.19,-193.51 1360.63,-183.12"/>
<polygon fill="black" stroke="black" points="1361.5,-179.73 1350.91,-180.11 1359.43,-186.41 1361.5,-179.73"/>
</g>
<!-- [root] module.teste.aws_key_pair.terraform_resource_kp&#45;&gt;[root] module.teste.aws_instance.west_web[0] -->
<g id="edge9" class="edge">
<title>[root] module.teste.aws_key_pair.terraform_resource_kp&#45;&gt;[root] module.teste.aws_instance.west_web[0]</title>
<path fill="none" stroke="black" d="M1529.56,-215.69C1538.7,-196.79 1555.04,-166.25 1574.67,-144 1584.39,-132.98 1596.66,-122.62 1608.08,-114.03"/>
<polygon fill="black" stroke="black" points="1610.19,-116.83 1616.21,-108.11 1606.07,-111.17 1610.19,-116.83"/>
</g>
<!-- [root] module.teste.aws_key_pair.terraform_resource_kp&#45;&gt;[root] provider.aws -->
<g id="edge10" class="edge">
<title>[root] module.teste.aws_key_pair.terraform_resource_kp&#45;&gt;[root] provider.aws</title>
<path fill="none" stroke="black" d="M1503.34,-215.84C1477.09,-191.4 1430.94,-148.96 1421.67,-144 1273.95,-64.98 1076.72,-35.44 969.68,-24.76"/>
<polygon fill="black" stroke="black" points="969.9,-21.26 959.61,-23.78 969.22,-28.23 969.9,-21.26"/>
</g>
<!-- [root] module.teste.aws_key_pair.terraform_resource_kp_west -->
<g id="node6" class="node">
<title>[root] module.teste.aws_key_pair.terraform_resource_kp_west</title>
<polygon fill="none" stroke="black" points="2062.17,-180 1655.17,-180 1655.17,-144 2062.17,-144 2062.17,-180"/>
<text text-anchor="middle" x="1858.67" y="-158.3" font-family="Times,serif" font-size="14.00">module.teste.aws_key_pair.terraform_resource_kp_west</text>
</g>
<!-- [root] module.teste.aws_key_pair.terraform_resource_kp_west&#45;&gt;[root] module.teste.aws_instance.west_web[0] -->
<g id="edge11" class="edge">
<title>[root] module.teste.aws_key_pair.terraform_resource_kp_west&#45;&gt;[root] module.teste.aws_instance.west_web[0]</title>
<path fill="none" stroke="black" d="M1806.11,-143.97C1775.66,-134.1 1737.16,-121.62 1705.17,-111.25"/>
<polygon fill="black" stroke="black" points="1706.06,-107.86 1695.47,-108.11 1703.9,-114.52 1706.06,-107.86"/>
</g>
<!-- [root] module.teste.aws_key_pair.terraform_resource_kp_west&#45;&gt;[root] provider.aws.oregon -->
<g id="edge12" class="edge">
<title>[root] module.teste.aws_key_pair.terraform_resource_kp_west&#45;&gt;[root] provider.aws.oregon</title>
<path fill="none" stroke="black" d="M1912.71,-143.87C2000.8,-115.95 2173.96,-61.07 2258.26,-34.34"/>
<polygon fill="black" stroke="black" points="2259.37,-37.66 2267.84,-31.31 2257.25,-30.99 2259.37,-37.66"/>
</g>
<!-- [root] module.teste.aws_route_table.route_web_apps&#45;&gt;[root] module.teste.aws_route_table_association.web_app_teste_route_web_apps -->
<g id="edge13" class="edge">
<title>[root] module.teste.aws_route_table.route_web_apps&#45;&gt;[root] module.teste.aws_route_table_association.web_app_teste_route_web_apps</title>
<path fill="none" stroke="black" d="M285.09,-143.97C342.23,-133.66 415.2,-120.49 474.09,-109.87"/>
<polygon fill="black" stroke="black" points="474.94,-113.27 484.16,-108.05 473.7,-106.38 474.94,-113.27"/>
</g>
<!-- [root] module.teste.aws_route_table.route_web_apps&#45;&gt;[root] provider.aws -->
<g id="edge14" class="edge">
<title>[root] module.teste.aws_route_table.route_web_apps&#45;&gt;[root] provider.aws</title>
<path fill="none" stroke="black" d="M200.34,-143.69C213.16,-122.63 237.9,-87.93 269.67,-72 357.64,-27.88 633.57,-19.67 787.04,-18.64"/>
<polygon fill="black" stroke="black" points="787.44,-22.13 797.42,-18.58 787.4,-15.13 787.44,-22.13"/>
</g>
<!-- [root] module.teste.aws_route_table_association.web_app_teste_route_web_apps&#45;&gt;[root] provider.aws -->
<g id="edge15" class="edge">
<title>[root] module.teste.aws_route_table_association.web_app_teste_route_web_apps&#45;&gt;[root] provider.aws</title>
<path fill="none" stroke="black" d="M655.08,-71.97C712.65,-59.13 790.06,-41.87 840.64,-30.6"/>
<polygon fill="black" stroke="black" points="841.7,-33.95 850.7,-28.36 840.18,-27.12 841.7,-33.95"/>
</g>
<!-- [root] module.teste.aws_security_group.allow_remote_communication -->
<g id="node9" class="node">
<title>[root] module.teste.aws_security_group.allow_remote_communication</title>
<polygon fill="none" stroke="black" points="2532.67,-180 2080.67,-180 2080.67,-144 2532.67,-144 2532.67,-180"/>
<text text-anchor="middle" x="2306.67" y="-158.3" font-family="Times,serif" font-size="14.00">module.teste.aws_security_group.allow_remote_communication</text>
</g>
<!-- [root] module.teste.aws_security_group.allow_remote_communication&#45;&gt;[root] module.teste.aws_instance.west_web[0] -->
<g id="edge16" class="edge">
<title>[root] module.teste.aws_security_group.allow_remote_communication&#45;&gt;[root] module.teste.aws_instance.west_web[0]</title>
<path fill="none" stroke="black" d="M2145.09,-143.97C2036.4,-132.51 1894.29,-117.53 1788.95,-106.42"/>
<polygon fill="black" stroke="black" points="1789.19,-102.93 1778.88,-105.36 1788.45,-109.89 1789.19,-102.93"/>
</g>
<!-- [root] module.teste.aws_security_group.allow_remote_communication&#45;&gt;[root] provider.aws.oregon -->
<g id="edge17" class="edge">
<title>[root] module.teste.aws_security_group.allow_remote_communication&#45;&gt;[root] provider.aws.oregon</title>
<path fill="none" stroke="black" d="M2306.67,-143.87C2306.67,-119.67 2306.67,-75.21 2306.67,-46.39"/>
<polygon fill="black" stroke="black" points="2310.17,-46.19 2306.67,-36.19 2303.17,-46.19 2310.17,-46.19"/>
</g>
<!-- [root] module.teste.aws_security_group.allow_ssh -->
<g id="node10" class="node">
<title>[root] module.teste.aws_security_group.allow_ssh</title>
<polygon fill="none" stroke="black" points="1280.67,-252 956.67,-252 956.67,-216 1280.67,-216 1280.67,-252"/>
<text text-anchor="middle" x="1118.67" y="-230.3" font-family="Times,serif" font-size="14.00">module.teste.aws_security_group.allow_ssh</text>
</g>
<!-- [root] module.teste.aws_security_group.allow_ssh&#45;&gt;[root] module.teste.aws_instance.web[0] -->
<g id="edge18" class="edge">
<title>[root] module.teste.aws_security_group.allow_ssh&#45;&gt;[root] module.teste.aws_instance.web[0]</title>
<path fill="none" stroke="black" d="M1161.97,-215.88C1186.38,-206.22 1217.06,-194.09 1242.88,-183.88"/>
<polygon fill="black" stroke="black" points="1244.5,-187 1252.51,-180.07 1241.92,-180.49 1244.5,-187"/>
</g>
<!-- [root] module.teste.aws_security_group.allow_ssh&#45;&gt;[root] module.teste.aws_instance.west_web[0] -->
<g id="edge19" class="edge">
<title>[root] module.teste.aws_security_group.allow_ssh&#45;&gt;[root] module.teste.aws_instance.west_web[0]</title>
<path fill="none" stroke="black" d="M1123.27,-215.97C1129.84,-195.21 1144.06,-160.81 1169.67,-144 1221.94,-109.68 1377.71,-97.42 1496.34,-93.12"/>
<polygon fill="black" stroke="black" points="1496.75,-96.61 1506.62,-92.77 1496.5,-89.62 1496.75,-96.61"/>
</g>
<!-- [root] module.teste.aws_security_group.allow_ssh&#45;&gt;[root] provider.aws -->
<g id="edge20" class="edge">
<title>[root] module.teste.aws_security_group.allow_ssh&#45;&gt;[root] provider.aws</title>
<path fill="none" stroke="black" d="M1100.56,-215.85C1059.65,-177.11 960.19,-82.93 915.31,-40.43"/>
<polygon fill="black" stroke="black" points="917.5,-37.7 907.84,-33.36 912.69,-42.78 917.5,-37.7"/>
</g>
<!-- [root] module.teste.aws_security_group.allow_ssh_west -->
<g id="node11" class="node">
<title>[root] module.teste.aws_security_group.allow_ssh_west</title>
<polygon fill="none" stroke="black" points="2912.67,-180 2550.67,-180 2550.67,-144 2912.67,-144 2912.67,-180"/>
<text text-anchor="middle" x="2731.67" y="-158.3" font-family="Times,serif" font-size="14.00">module.teste.aws_security_group.allow_ssh_west</text>
</g>
<!-- [root] module.teste.aws_security_group.allow_ssh_west&#45;&gt;[root] module.teste.aws_instance.west_web[0] -->
<g id="edge21" class="edge">
<title>[root] module.teste.aws_security_group.allow_ssh_west&#45;&gt;[root] module.teste.aws_instance.west_web[0]</title>
<path fill="none" stroke="black" d="M2550.66,-144.68C2547.64,-144.45 2544.64,-144.22 2541.67,-144 2276.49,-124.32 1966.87,-107.4 1788.9,-98.25"/>
<polygon fill="black" stroke="black" points="1788.85,-94.75 1778.69,-97.73 1788.49,-101.74 1788.85,-94.75"/>
</g>
<!-- [root] module.teste.aws_security_group.allow_ssh_west&#45;&gt;[root] provider.aws.oregon -->
<g id="edge22" class="edge">
<title>[root] module.teste.aws_security_group.allow_ssh_west&#45;&gt;[root] provider.aws.oregon</title>
<path fill="none" stroke="black" d="M2680.4,-143.87C2597.3,-116.11 2434.4,-61.68 2353.94,-34.79"/>
<polygon fill="black" stroke="black" points="2354.67,-31.35 2344.08,-31.5 2352.46,-37.99 2354.67,-31.35"/>
</g>
<!-- [root] module.teste.aws_subnet.web_app_teste -->
<g id="node12" class="node">
<title>[root] module.teste.aws_subnet.web_app_teste</title>
<polygon fill="none" stroke="black" points="938.67,-252 644.67,-252 644.67,-216 938.67,-216 938.67,-252"/>
<text text-anchor="middle" x="791.67" y="-230.3" font-family="Times,serif" font-size="14.00">module.teste.aws_subnet.web_app_teste</text>
</g>
<!-- [root] module.teste.aws_subnet.web_app_teste&#45;&gt;[root] module.teste.aws_instance.web[0] -->
<g id="edge23" class="edge">
<title>[root] module.teste.aws_subnet.web_app_teste&#45;&gt;[root] module.teste.aws_instance.web[0]</title>
<path fill="none" stroke="black" d="M914.32,-215.97C991.28,-205.28 1090.33,-191.52 1168.2,-180.7"/>
<polygon fill="black" stroke="black" points="1169.13,-184.11 1178.55,-179.27 1168.16,-177.18 1169.13,-184.11"/>
</g>
<!-- [root] module.teste.aws_subnet.web_app_teste&#45;&gt;[root] module.teste.aws_instance.west_web[0] -->
<g id="edge24" class="edge">
<title>[root] module.teste.aws_subnet.web_app_teste&#45;&gt;[root] module.teste.aws_instance.west_web[0]</title>
<path fill="none" stroke="black" d="M847.11,-215.93C914.63,-195.77 1032.47,-162.64 1135.67,-144 1256.3,-122.21 1394.82,-108.49 1496.55,-100.48"/>
<polygon fill="black" stroke="black" points="1496.89,-103.96 1506.59,-99.7 1496.35,-96.98 1496.89,-103.96"/>
</g>
<!-- [root] module.teste.aws_subnet.web_app_teste&#45;&gt;[root] module.teste.aws_route_table_association.web_app_teste_route_web_apps -->
<g id="edge25" class="edge">
<title>[root] module.teste.aws_subnet.web_app_teste&#45;&gt;[root] module.teste.aws_route_table_association.web_app_teste_route_web_apps</title>
<path fill="none" stroke="black" d="M765.98,-215.87C727.68,-190.34 655.55,-142.25 612.84,-113.78"/>
<polygon fill="black" stroke="black" points="614.71,-110.82 604.45,-108.19 610.83,-116.65 614.71,-110.82"/>
</g>
<!-- [root] module.teste.aws_subnet.web_app_teste&#45;&gt;[root] provider.aws -->
<g id="edge26" class="edge">
<title>[root] module.teste.aws_subnet.web_app_teste&#45;&gt;[root] provider.aws</title>
<path fill="none" stroke="black" d="M824.64,-215.91C839.06,-206.95 855.07,-194.76 865.67,-180 894.31,-140.12 896.55,-80.48 895.01,-46.09"/>
<polygon fill="black" stroke="black" points="898.49,-45.64 894.4,-35.87 891.5,-46.06 898.49,-45.64"/>
</g>
<!-- [root] module.teste.aws_vpc.web_apps -->
<g id="node13" class="node">
<title>[root] module.teste.aws_vpc.web_apps</title>
<polygon fill="none" stroke="black" points="908.67,-324 674.67,-324 674.67,-288 908.67,-288 908.67,-324"/>
<text text-anchor="middle" x="791.67" y="-302.3" font-family="Times,serif" font-size="14.00">module.teste.aws_vpc.web_apps</text>
</g>
<!-- [root] module.teste.aws_vpc.web_apps&#45;&gt;[root] module.teste.aws_instance.web[0] -->
<g id="edge27" class="edge">
<title>[root] module.teste.aws_vpc.web_apps&#45;&gt;[root] module.teste.aws_instance.web[0]</title>
<path fill="none" stroke="black" d="M908.96,-300.33C1047.85,-293.61 1263.75,-278.94 1289.67,-252 1305.05,-236.01 1305.1,-210.05 1302.15,-190.28"/>
<polygon fill="black" stroke="black" points="1305.57,-189.53 1300.35,-180.32 1298.69,-190.78 1305.57,-189.53"/>
</g>
<!-- [root] module.teste.aws_vpc.web_apps&#45;&gt;[root] module.teste.aws_instance.west_web[0] -->
<g id="edge28" class="edge">
<title>[root] module.teste.aws_vpc.web_apps&#45;&gt;[root] module.teste.aws_instance.west_web[0]</title>
<path fill="none" stroke="black" d="M908.68,-304.31C1209.55,-301.95 1989.34,-292.01 2027.67,-252 2038.74,-240.45 2038.44,-227.83 2027.67,-216 1970.28,-152.94 1704.12,-242.08 1645.67,-180 1630.49,-163.87 1631.36,-137.93 1635.07,-118.2"/>
<polygon fill="black" stroke="black" points="1638.52,-118.78 1637.27,-108.26 1631.69,-117.27 1638.52,-118.78"/>
</g>
<!-- [root] module.teste.aws_vpc.web_apps&#45;&gt;[root] module.teste.aws_internet_gateway.web_apps -->
<g id="edge29" class="edge">
<title>[root] module.teste.aws_vpc.web_apps&#45;&gt;[root] module.teste.aws_internet_gateway.web_apps</title>
<path fill="none" stroke="black" d="M692.63,-287.97C632.56,-277.63 555.83,-264.44 493.99,-253.8"/>
<polygon fill="black" stroke="black" points="494.25,-250.3 483.8,-252.05 493.06,-257.19 494.25,-250.3"/>
</g>
<!-- [root] module.teste.aws_vpc.web_apps&#45;&gt;[root] module.teste.aws_route_table.route_web_apps -->
<g id="edge30" class="edge">
<title>[root] module.teste.aws_vpc.web_apps&#45;&gt;[root] module.teste.aws_route_table.route_web_apps</title>
<path fill="none" stroke="black" d="M674.6,-301.68C514.64,-296.04 243.63,-282.13 209.67,-252 192.64,-236.89 188.76,-210.59 188.62,-190.49"/>
<polygon fill="black" stroke="black" points="192.13,-190.43 188.86,-180.35 185.13,-190.27 192.13,-190.43"/>
</g>
<!-- [root] module.teste.aws_vpc.web_apps&#45;&gt;[root] module.teste.aws_route_table_association.web_app_teste_route_web_apps -->
<g id="edge31" class="edge">
<title>[root] module.teste.aws_vpc.web_apps&#45;&gt;[root] module.teste.aws_route_table_association.web_app_teste_route_web_apps</title>
<path fill="none" stroke="black" d="M674.53,-294.02C647.5,-286.09 621.26,-273.09 602.67,-252 569.98,-214.93 570.75,-153.36 574.53,-118.07"/>
<polygon fill="black" stroke="black" points="578.02,-118.37 575.76,-108.02 571.07,-117.52 578.02,-118.37"/>
</g>
<!-- [root] module.teste.aws_vpc.web_apps&#45;&gt;[root] module.teste.aws_security_group.allow_ssh -->
<g id="edge32" class="edge">
<title>[root] module.teste.aws_vpc.web_apps&#45;&gt;[root] module.teste.aws_security_group.allow_ssh</title>
<path fill="none" stroke="black" d="M871.24,-287.97C918.91,-277.76 979.63,-264.76 1028.99,-254.2"/>
<polygon fill="black" stroke="black" points="1029.97,-257.57 1039.02,-252.05 1028.51,-250.72 1029.97,-257.57"/>
</g>
<!-- [root] module.teste.aws_vpc.web_apps&#45;&gt;[root] module.teste.aws_subnet.web_app_teste -->
<g id="edge33" class="edge">
<title>[root] module.teste.aws_vpc.web_apps&#45;&gt;[root] module.teste.aws_subnet.web_app_teste</title>
<path fill="none" stroke="black" d="M791.67,-287.7C791.67,-279.98 791.67,-270.71 791.67,-262.11"/>
<polygon fill="black" stroke="black" points="795.17,-262.1 791.67,-252.1 788.17,-262.1 795.17,-262.1"/>
</g>
<!-- [root] module.teste.aws_vpc.web_apps&#45;&gt;[root] provider.aws -->
<g id="edge34" class="edge">
<title>[root] module.teste.aws_vpc.web_apps&#45;&gt;[root] provider.aws</title>
<path fill="none" stroke="black" d="M683.54,-287.83C664.76,-279.94 647.5,-268.51 635.67,-252 626.35,-238.99 627.22,-229.59 635.67,-216 692.98,-123.84 780.05,-186.81 854.67,-108 871.22,-90.52 881.14,-64.74 886.68,-45.41"/>
<polygon fill="black" stroke="black" points="890.07,-46.27 889.25,-35.71 883.31,-44.48 890.07,-46.27"/>
</g>
<!-- [root] module.teste.data.aws_ami.gomex_image -->
<g id="node14" class="node">
<title>[root] module.teste.data.aws_ami.gomex_image</title>
<polygon fill="none" stroke="black" points="2018.67,-252 1724.67,-252 1724.67,-216 2018.67,-216 2018.67,-252"/>
<text text-anchor="middle" x="1871.67" y="-230.3" font-family="Times,serif" font-size="14.00">module.teste.data.aws_ami.gomex_image</text>
</g>
<!-- [root] module.teste.data.aws_ami.gomex_image&#45;&gt;[root] module.teste.aws_instance.web[0] -->
<g id="edge35" class="edge">
<title>[root] module.teste.data.aws_ami.gomex_image&#45;&gt;[root] module.teste.aws_instance.web[0]</title>
<path fill="none" stroke="black" d="M1731.5,-215.97C1637.46,-204.54 1514.56,-189.6 1423.25,-178.5"/>
<polygon fill="black" stroke="black" points="1423.47,-175.01 1413.12,-177.27 1422.62,-181.95 1423.47,-175.01"/>
</g>
<!-- [root] module.teste.data.aws_ami.gomex_image&#45;&gt;[root] module.teste.aws_instance.west_web[0] -->
<g id="edge36" class="edge">
<title>[root] module.teste.data.aws_ami.gomex_image&#45;&gt;[root] module.teste.aws_instance.west_web[0]</title>
<path fill="none" stroke="black" d="M1754.61,-215.94C1690.55,-205.41 1622.23,-191.71 1612.67,-180 1597.74,-161.71 1609.3,-135.63 1622.16,-116.43"/>
<polygon fill="black" stroke="black" points="1625.11,-118.32 1628.07,-108.14 1619.41,-114.25 1625.11,-118.32"/>
</g>
<!-- [root] module.teste.data.aws_ami.gomex_image&#45;&gt;[root] provider.aws -->
<g id="edge37" class="edge">
<title>[root] module.teste.data.aws_ami.gomex_image&#45;&gt;[root] provider.aws</title>
<path fill="none" stroke="black" d="M1765.68,-215.96C1715.55,-206.94 1655.1,-194.68 1601.67,-180 1463.81,-142.13 1437.67,-105.44 1298.67,-72 1186.71,-45.06 1053.87,-31 971.41,-24.3"/>
<polygon fill="black" stroke="black" points="971.61,-20.8 961.36,-23.49 971.05,-27.78 971.61,-20.8"/>
</g>
<!-- [root] module.teste.data.aws_ami.west_ubuntu -->
<g id="node15" class="node">
<title>[root] module.teste.data.aws_ami.west_ubuntu</title>
<polygon fill="none" stroke="black" points="3224.67,-180 2930.67,-180 2930.67,-144 3224.67,-144 3224.67,-180"/>
<text text-anchor="middle" x="3077.67" y="-158.3" font-family="Times,serif" font-size="14.00">module.teste.data.aws_ami.west_ubuntu</text>
</g>
<!-- [root] module.teste.data.aws_ami.west_ubuntu&#45;&gt;[root] module.teste.aws_instance.west_web[0] -->
<g id="edge38" class="edge">
<title>[root] module.teste.data.aws_ami.west_ubuntu&#45;&gt;[root] module.teste.aws_instance.west_web[0]</title>
<path fill="none" stroke="black" d="M2930.3,-144.67C2927.4,-144.44 2924.52,-144.21 2921.67,-144 2512.03,-113.23 2027.13,-99.26 1789.23,-93.88"/>
<polygon fill="black" stroke="black" points="1789.21,-90.37 1779.13,-93.65 1789.05,-97.37 1789.21,-90.37"/>
</g>
<!-- [root] module.teste.data.aws_ami.west_ubuntu&#45;&gt;[root] provider.aws.oregon -->
<g id="edge39" class="edge">
<title>[root] module.teste.data.aws_ami.west_ubuntu&#45;&gt;[root] provider.aws.oregon</title>
<path fill="none" stroke="black" d="M2985.05,-143.94C2827.16,-114.86 2509.66,-56.39 2372.39,-31.1"/>
<polygon fill="black" stroke="black" points="2372.89,-27.64 2362.42,-29.27 2371.62,-34.52 2372.89,-27.64"/>
</g>
<!-- [root] root -->
<g id="node18" class="node">
<title>[root] root</title>
<ellipse fill="none" stroke="black" cx="2030.67" cy="-378" rx="64.19" ry="18"/>
<text text-anchor="middle" x="2030.67" y="-374.3" font-family="Times,serif" font-size="14.00">[root] root</text>
</g>
<!-- [root] root&#45;&gt;[root] aws_dynamodb_table.dynamo_state_lock -->
<g id="edge40" class="edge">
<title>[root] root&#45;&gt;[root] aws_dynamodb_table.dynamo_state_lock</title>
<path fill="none" stroke="black" d="M1967.39,-374.6C1773.03,-367.2 1167.45,-344.07 665.67,-324 580.06,-320.58 484.48,-316.65 406.84,-313.43"/>
<polygon fill="black" stroke="black" points="406.63,-309.92 396.49,-313 406.34,-316.91 406.63,-309.92"/>
</g>
<!-- [root] root&#45;&gt;[root] module.teste.aws_key_pair.terraform_resource_kp -->
<g id="edge41" class="edge">
<title>[root] root&#45;&gt;[root] module.teste.aws_key_pair.terraform_resource_kp</title>
<path fill="none" stroke="black" d="M1986.83,-364.77C1898.67,-340.18 1699.25,-284.54 1592.4,-254.73"/>
<polygon fill="black" stroke="black" points="1593.24,-251.33 1582.67,-252.02 1591.36,-258.08 1593.24,-251.33"/>
</g>
<!-- [root] root&#45;&gt;[root] module.teste.aws_key_pair.terraform_resource_kp_west -->
<g id="edge42" class="edge">
<title>[root] root&#45;&gt;[root] module.teste.aws_key_pair.terraform_resource_kp_west</title>
<path fill="none" stroke="black" d="M2041.61,-359.95C2060.47,-328.17 2094.01,-259.22 2060.67,-216 2049.71,-201.8 2017.05,-190.66 1981.09,-182.33"/>
<polygon fill="black" stroke="black" points="1981.4,-178.81 1970.88,-180.06 1979.88,-185.65 1981.4,-178.81"/>
</g>
<!-- [root] root&#45;&gt;[root] module.teste.aws_security_group.allow_remote_communication -->
<g id="edge43" class="edge">
<title>[root] root&#45;&gt;[root] module.teste.aws_security_group.allow_remote_communication</title>
<path fill="none" stroke="black" d="M2051.41,-360.92C2099.71,-323.47 2219.83,-230.33 2276.35,-186.51"/>
<polygon fill="black" stroke="black" points="2278.78,-189.05 2284.54,-180.16 2274.49,-183.52 2278.78,-189.05"/>
</g>
<!-- [root] root&#45;&gt;[root] module.teste.aws_security_group.allow_ssh_west -->
<g id="edge44" class="edge">
<title>[root] root&#45;&gt;[root] module.teste.aws_security_group.allow_ssh_west</title>
<path fill="none" stroke="black" d="M2072.42,-364.25C2189.79,-328.42 2523.34,-226.6 2665.83,-183.1"/>
<polygon fill="black" stroke="black" points="2667.21,-186.34 2675.75,-180.07 2665.17,-179.64 2667.21,-186.34"/>
</g>
<!-- [root] root&#45;&gt;[root] module.teste.aws_vpc.web_apps -->
<g id="edge45" class="edge">
<title>[root] root&#45;&gt;[root] module.teste.aws_vpc.web_apps</title>
<path fill="none" stroke="black" d="M1968.38,-373.48C1774.92,-362.55 1181.74,-329.04 919.09,-314.2"/>
<polygon fill="black" stroke="black" points="918.92,-310.68 908.74,-313.61 918.53,-317.67 918.92,-310.68"/>
</g>
<!-- [root] root&#45;&gt;[root] module.teste.data.aws_ami.gomex_image -->
<g id="edge46" class="edge">
<title>[root] root&#45;&gt;[root] module.teste.data.aws_ami.gomex_image</title>
<path fill="none" stroke="black" d="M2012.43,-360.71C1984.53,-335.8 1931.09,-288.07 1898.69,-259.13"/>
<polygon fill="black" stroke="black" points="1900.72,-256.25 1890.93,-252.2 1896.06,-261.47 1900.72,-256.25"/>
</g>
<!-- [root] root&#45;&gt;[root] module.teste.data.aws_ami.west_ubuntu -->
<g id="edge47" class="edge">
<title>[root] root&#45;&gt;[root] module.teste.data.aws_ami.west_ubuntu</title>
<path fill="none" stroke="black" d="M2081.17,-366.68C2245.93,-333 2769.53,-225.98 2984.35,-182.07"/>
<polygon fill="black" stroke="black" points="2985.24,-185.46 2994.34,-180.03 2983.84,-178.61 2985.24,-185.46"/>
</g>
</g>
</svg>
