<?xml version="1.0" encoding="UTF-8" standalone="no"?>
<!DOCTYPE svg PUBLIC "-//W3C//DTD SVG 1.1//EN"
 "http://www.w3.org/Graphics/SVG/1.1/DTD/svg11.dtd">
<!-- Generated by graphviz version 2.42.3 ()
 -->
<!-- Title: %3 Pages: 1 -->
<svg width="3676pt" height="620pt"
 viewBox="0.00 0.00 3675.73 620.00" xmlns="http://www.w3.org/2000/svg" xmlns:xlink="http://www.w3.org/1999/xlink">
<g id="graph0" class="graph" transform="scale(1 1) rotate(0) translate(4 616)">
<title>%3</title>
<polygon fill="white" stroke="transparent" points="-4,4 -4,-616 3671.73,-616 3671.73,4 -4,4"/>
<!-- [root] aws_dynamodb_table.dynamo_state_lock -->
<g id="node1" class="node">
<title>[root] aws_dynamodb_table.dynamo_state_lock</title>
<polygon fill="none" stroke="black" points="336.23,-324 49.23,-324 49.23,-288 336.23,-288 336.23,-324"/>
<text text-anchor="middle" x="192.73" y="-302.3" font-family="Times,serif" font-size="14.00">aws_dynamodb_table.dynamo_state_lock</text>
</g>
<!-- [root] provider.aws -->
<g id="node33" class="node">
<title>[root] provider.aws</title>
<polygon fill="none" stroke="black" points="1170.73,-36 1072.53,-18 1170.73,0 1268.93,-18 1170.73,-36"/>
<text text-anchor="middle" x="1170.73" y="-14.3" font-family="Times,serif" font-size="14.00">provider.aws</text>
</g>
<!-- [root] aws_dynamodb_table.dynamo_state_lock&#45;&gt;[root] provider.aws -->
<g id="edge1" class="edge">
<title>[root] aws_dynamodb_table.dynamo_state_lock&#45;&gt;[root] provider.aws</title>
<path fill="none" stroke="black" d="M146.52,-287.95C77.75,-260.13 -38.24,-202.18 12.73,-144 82.92,-63.89 821.91,-30.98 1081.33,-21.83"/>
<polygon fill="black" stroke="black" points="1081.59,-25.33 1091.46,-21.48 1081.35,-18.33 1081.59,-25.33"/>
</g>
<!-- [root] module.teste.aws_instance.web -->
<g id="node2" class="node">
<title>[root] module.teste.aws_instance.web</title>
<polygon fill="none" stroke="black" points="1504.73,-252 1270.73,-252 1270.73,-216 1504.73,-216 1504.73,-252"/>
<text text-anchor="middle" x="1387.73" y="-230.3" font-family="Times,serif" font-size="14.00">module.teste.aws_instance.web</text>
</g>
<!-- [root] module.teste.aws_key_pair.terraform_resource_kp -->
<g id="node5" class="node">
<title>[root] module.teste.aws_key_pair.terraform_resource_kp</title>
<polygon fill="none" stroke="black" points="2744.23,-180 2375.23,-180 2375.23,-144 2744.23,-144 2744.23,-180"/>
<text text-anchor="middle" x="2559.73" y="-158.3" font-family="Times,serif" font-size="14.00">module.teste.aws_key_pair.terraform_resource_kp</text>
</g>
<!-- [root] module.teste.aws_instance.web&#45;&gt;[root] module.teste.aws_key_pair.terraform_resource_kp -->
<g id="edge10" class="edge">
<title>[root] module.teste.aws_instance.web&#45;&gt;[root] module.teste.aws_key_pair.terraform_resource_kp</title>
<path fill="none" stroke="black" d="M1504.98,-216.91C1508.26,-216.59 1511.52,-216.28 1514.73,-216 1888.52,-183.14 1986.26,-204.15 2365.03,-180.02"/>
<polygon fill="black" stroke="black" points="2365.42,-183.51 2375.17,-179.37 2364.97,-176.52 2365.42,-183.51"/>
</g>
<!-- [root] module.teste.aws_security_group.allow_ssh -->
<g id="node10" class="node">
<title>[root] module.teste.aws_security_group.allow_ssh</title>
<polygon fill="none" stroke="black" points="1007.73,-180 683.73,-180 683.73,-144 1007.73,-144 1007.73,-180"/>
<text text-anchor="middle" x="845.73" y="-158.3" font-family="Times,serif" font-size="14.00">module.teste.aws_security_group.allow_ssh</text>
</g>
<!-- [root] module.teste.aws_instance.web&#45;&gt;[root] module.teste.aws_security_group.allow_ssh -->
<g id="edge11" class="edge">
<title>[root] module.teste.aws_instance.web&#45;&gt;[root] module.teste.aws_security_group.allow_ssh</title>
<path fill="none" stroke="black" d="M1270.46,-217.85C1187.44,-207.13 1075.65,-192.69 987.6,-181.32"/>
<polygon fill="black" stroke="black" points="987.9,-177.83 977.53,-180.02 987,-184.77 987.9,-177.83"/>
</g>
<!-- [root] module.teste.aws_subnet.web_app_teste -->
<g id="node12" class="node">
<title>[root] module.teste.aws_subnet.web_app_teste</title>
<polygon fill="none" stroke="black" points="665.73,-180 371.73,-180 371.73,-144 665.73,-144 665.73,-180"/>
<text text-anchor="middle" x="518.73" y="-158.3" font-family="Times,serif" font-size="14.00">module.teste.aws_subnet.web_app_teste</text>
</g>
<!-- [root] module.teste.aws_instance.web&#45;&gt;[root] module.teste.aws_subnet.web_app_teste -->
<g id="edge12" class="edge">
<title>[root] module.teste.aws_instance.web&#45;&gt;[root] module.teste.aws_subnet.web_app_teste</title>
<path fill="none" stroke="black" d="M1270.61,-225.53C1131.46,-216.38 892.03,-199.74 676.36,-180.13"/>
<polygon fill="black" stroke="black" points="676.38,-176.62 666.11,-179.2 675.75,-183.59 676.38,-176.62"/>
</g>
<!-- [root] module.teste.data.aws_ami.gomex_image -->
<g id="node14" class="node">
<title>[root] module.teste.data.aws_ami.gomex_image</title>
<polygon fill="none" stroke="black" points="2149.73,-180 1855.73,-180 1855.73,-144 2149.73,-144 2149.73,-180"/>
<text text-anchor="middle" x="2002.73" y="-158.3" font-family="Times,serif" font-size="14.00">module.teste.data.aws_ami.gomex_image</text>
</g>
<!-- [root] module.teste.aws_instance.web&#45;&gt;[root] module.teste.data.aws_ami.gomex_image -->
<g id="edge13" class="edge">
<title>[root] module.teste.aws_instance.web&#45;&gt;[root] module.teste.data.aws_ami.gomex_image</title>
<path fill="none" stroke="black" d="M1505.01,-217.19C1508.28,-216.79 1511.53,-216.39 1514.73,-216 1658.77,-198.55 1697.46,-196.14 1845,-180.19"/>
<polygon fill="black" stroke="black" points="1845.78,-183.62 1855.34,-179.06 1845.03,-176.66 1845.78,-183.62"/>
</g>
<!-- [root] module.teste.var.blocks -->
<g id="node20" class="node">
<title>[root] module.teste.var.blocks</title>
<polygon fill="none" stroke="black" points="2351.23,-180 2168.23,-180 2168.23,-144 2357.23,-144 2357.23,-174 2351.23,-180"/>
<polyline fill="none" stroke="black" points="2351.23,-180 2351.23,-174 "/>
<polyline fill="none" stroke="black" points="2357.23,-174 2351.23,-174 "/>
<text text-anchor="middle" x="2262.73" y="-158.3" font-family="Times,serif" font-size="14.00">module.teste.var.blocks</text>
</g>
<!-- [root] module.teste.aws_instance.web&#45;&gt;[root] module.teste.var.blocks -->
<g id="edge14" class="edge">
<title>[root] module.teste.aws_instance.web&#45;&gt;[root] module.teste.var.blocks</title>
<path fill="none" stroke="black" d="M1504.98,-216.97C1508.27,-216.63 1511.52,-216.3 1514.73,-216 1796.78,-189.28 1872.01,-210.65 2157.87,-180.01"/>
<polygon fill="black" stroke="black" points="2158.57,-183.46 2168.13,-178.9 2157.81,-176.5 2158.57,-183.46"/>
</g>
<!-- [root] module.teste.var.private_key_path -->
<g id="node24" class="node">
<title>[root] module.teste.var.private_key_path</title>
<polygon fill="none" stroke="black" points="1831.73,-180 1573.73,-180 1573.73,-144 1837.73,-144 1837.73,-174 1831.73,-180"/>
<polyline fill="none" stroke="black" points="1831.73,-180 1831.73,-174 "/>
<polyline fill="none" stroke="black" points="1837.73,-174 1831.73,-174 "/>
<text text-anchor="middle" x="1705.73" y="-158.3" font-family="Times,serif" font-size="14.00">module.teste.var.private_key_path</text>
</g>
<!-- [root] module.teste.aws_instance.web&#45;&gt;[root] module.teste.var.private_key_path -->
<g id="edge15" class="edge">
<title>[root] module.teste.aws_instance.web&#45;&gt;[root] module.teste.var.private_key_path</title>
<path fill="none" stroke="black" d="M1465.12,-215.97C1511.37,-205.78 1570.27,-192.82 1618.22,-182.26"/>
<polygon fill="black" stroke="black" points="1619.26,-185.62 1628.28,-180.05 1617.76,-178.78 1619.26,-185.62"/>
</g>
<!-- [root] module.teste.var.servers -->
<g id="node26" class="node">
<title>[root] module.teste.var.servers</title>
<polygon fill="none" stroke="black" points="1217.23,-180 1026.23,-180 1026.23,-144 1223.23,-144 1223.23,-174 1217.23,-180"/>
<polyline fill="none" stroke="black" points="1217.23,-180 1217.23,-174 "/>
<polyline fill="none" stroke="black" points="1223.23,-174 1217.23,-174 "/>
<text text-anchor="middle" x="1124.73" y="-158.3" font-family="Times,serif" font-size="14.00">module.teste.var.servers</text>
</g>
<!-- [root] module.teste.aws_instance.web&#45;&gt;[root] module.teste.var.servers -->
<g id="edge16" class="edge">
<title>[root] module.teste.aws_instance.web&#45;&gt;[root] module.teste.var.servers</title>
<path fill="none" stroke="black" d="M1323.73,-215.97C1286.03,-205.93 1238.16,-193.19 1198.83,-182.72"/>
<polygon fill="black" stroke="black" points="1199.58,-179.3 1189.02,-180.11 1197.78,-186.07 1199.58,-179.3"/>
</g>
<!-- [root] provisioner.remote&#45;exec -->
<g id="node43" class="node">
<title>[root] provisioner.remote&#45;exec</title>
<ellipse fill="none" stroke="black" cx="1398.73" cy="-162" rx="157.07" ry="18"/>
<text text-anchor="middle" x="1398.73" y="-158.3" font-family="Times,serif" font-size="14.00">[root] provisioner.remote&#45;exec</text>
</g>
<!-- [root] module.teste.aws_instance.web&#45;&gt;[root] provisioner.remote&#45;exec -->
<g id="edge17" class="edge">
<title>[root] module.teste.aws_instance.web&#45;&gt;[root] provisioner.remote&#45;exec</title>
<path fill="none" stroke="black" d="M1390.45,-215.7C1391.66,-207.98 1393.12,-198.71 1394.47,-190.11"/>
<polygon fill="black" stroke="black" points="1397.95,-190.53 1396.04,-180.1 1391.03,-189.44 1397.95,-190.53"/>
</g>
<!-- [root] module.teste.aws_instance.west_web -->
<g id="node3" class="node">
<title>[root] module.teste.aws_instance.west_web</title>
<polygon fill="none" stroke="black" points="2437.73,-324 2165.73,-324 2165.73,-288 2437.73,-288 2437.73,-324"/>
<text text-anchor="middle" x="2301.73" y="-302.3" font-family="Times,serif" font-size="14.00">module.teste.aws_instance.west_web</text>
</g>
<!-- [root] module.teste.aws_instance.west_web&#45;&gt;[root] module.teste.aws_instance.web -->
<g id="edge18" class="edge">
<title>[root] module.teste.aws_instance.west_web&#45;&gt;[root] module.teste.aws_instance.web</title>
<path fill="none" stroke="black" d="M2165.72,-298.56C2010.88,-290.61 1750.13,-275.34 1515.1,-251.99"/>
<polygon fill="black" stroke="black" points="1515.29,-248.49 1504.99,-250.98 1514.59,-255.46 1515.29,-248.49"/>
</g>
<!-- [root] module.teste.aws_key_pair.terraform_resource_kp_west -->
<g id="node6" class="node">
<title>[root] module.teste.aws_key_pair.terraform_resource_kp_west</title>
<polygon fill="none" stroke="black" points="2505.23,-252 2098.23,-252 2098.23,-216 2505.23,-216 2505.23,-252"/>
<text text-anchor="middle" x="2301.73" y="-230.3" font-family="Times,serif" font-size="14.00">module.teste.aws_key_pair.terraform_resource_kp_west</text>
</g>
<!-- [root] module.teste.aws_instance.west_web&#45;&gt;[root] module.teste.aws_key_pair.terraform_resource_kp_west -->
<g id="edge19" class="edge">
<title>[root] module.teste.aws_instance.west_web&#45;&gt;[root] module.teste.aws_key_pair.terraform_resource_kp_west</title>
<path fill="none" stroke="black" d="M2301.73,-287.7C2301.73,-279.98 2301.73,-270.71 2301.73,-262.11"/>
<polygon fill="black" stroke="black" points="2305.23,-262.1 2301.73,-252.1 2298.23,-262.1 2305.23,-262.1"/>
</g>
<!-- [root] module.teste.aws_security_group.allow_remote_communication -->
<g id="node9" class="node">
<title>[root] module.teste.aws_security_group.allow_remote_communication</title>
<polygon fill="none" stroke="black" points="2975.73,-252 2523.73,-252 2523.73,-216 2975.73,-216 2975.73,-252"/>
<text text-anchor="middle" x="2749.73" y="-230.3" font-family="Times,serif" font-size="14.00">module.teste.aws_security_group.allow_remote_communication</text>
</g>
<!-- [root] module.teste.aws_instance.west_web&#45;&gt;[root] module.teste.aws_security_group.allow_remote_communication -->
<g id="edge20" class="edge">
<title>[root] module.teste.aws_instance.west_web&#45;&gt;[root] module.teste.aws_security_group.allow_remote_communication</title>
<path fill="none" stroke="black" d="M2410.75,-287.97C2477.28,-277.57 2562.38,-264.27 2630.66,-253.6"/>
<polygon fill="black" stroke="black" points="2631.27,-257.05 2640.61,-252.05 2630.19,-250.14 2631.27,-257.05"/>
</g>
<!-- [root] module.teste.aws_security_group.allow_ssh_west -->
<g id="node11" class="node">
<title>[root] module.teste.aws_security_group.allow_ssh_west</title>
<polygon fill="none" stroke="black" points="3355.73,-252 2993.73,-252 2993.73,-216 3355.73,-216 3355.73,-252"/>
<text text-anchor="middle" x="3174.73" y="-230.3" font-family="Times,serif" font-size="14.00">module.teste.aws_security_group.allow_ssh_west</text>
</g>
<!-- [root] module.teste.aws_instance.west_web&#45;&gt;[root] module.teste.aws_security_group.allow_ssh_west -->
<g id="edge21" class="edge">
<title>[root] module.teste.aws_instance.west_web&#45;&gt;[root] module.teste.aws_security_group.allow_ssh_west</title>
<path fill="none" stroke="black" d="M2437.84,-294.91C2573.36,-284.76 2787.63,-268.41 2983.52,-252.1"/>
<polygon fill="black" stroke="black" points="2984.04,-255.56 2993.72,-251.25 2983.46,-248.59 2984.04,-255.56"/>
</g>
<!-- [root] module.teste.data.aws_ami.west_ubuntu -->
<g id="node15" class="node">
<title>[root] module.teste.data.aws_ami.west_ubuntu</title>
<polygon fill="none" stroke="black" points="3667.73,-252 3373.73,-252 3373.73,-216 3667.73,-216 3667.73,-252"/>
<text text-anchor="middle" x="3520.73" y="-230.3" font-family="Times,serif" font-size="14.00">module.teste.data.aws_ami.west_ubuntu</text>
</g>
<!-- [root] module.teste.aws_instance.west_web&#45;&gt;[root] module.teste.data.aws_ami.west_ubuntu -->
<g id="edge22" class="edge">
<title>[root] module.teste.aws_instance.west_web&#45;&gt;[root] module.teste.data.aws_ami.west_ubuntu</title>
<path fill="none" stroke="black" d="M2437.82,-300.77C2638.19,-293.98 3024.61,-278.68 3363.36,-252.08"/>
<polygon fill="black" stroke="black" points="3363.67,-255.57 3373.37,-251.29 3363.12,-248.59 3363.67,-255.57"/>
</g>
<!-- [root] module.teste.var.servers_west -->
<g id="node27" class="node">
<title>[root] module.teste.var.servers_west</title>
<polygon fill="none" stroke="black" points="1751.73,-252 1523.73,-252 1523.73,-216 1757.73,-216 1757.73,-246 1751.73,-252"/>
<polyline fill="none" stroke="black" points="1751.73,-252 1751.73,-246 "/>
<polyline fill="none" stroke="black" points="1757.73,-246 1751.73,-246 "/>
<text text-anchor="middle" x="1640.73" y="-230.3" font-family="Times,serif" font-size="14.00">module.teste.var.servers_west</text>
</g>
<!-- [root] module.teste.aws_instance.west_web&#45;&gt;[root] module.teste.var.servers_west -->
<g id="edge23" class="edge">
<title>[root] module.teste.aws_instance.west_web&#45;&gt;[root] module.teste.var.servers_west</title>
<path fill="none" stroke="black" d="M2165.53,-292.85C2059.86,-283.1 1909.44,-268.54 1767.92,-252.12"/>
<polygon fill="black" stroke="black" points="1768.09,-248.61 1757.75,-250.93 1767.28,-255.57 1768.09,-248.61"/>
</g>
<!-- [root] provisioner.local&#45;exec -->
<g id="node44" class="node">
<title>[root] provisioner.local&#45;exec</title>
<ellipse fill="none" stroke="black" cx="1927.73" cy="-234" rx="152.17" ry="18"/>
<text text-anchor="middle" x="1927.73" y="-230.3" font-family="Times,serif" font-size="14.00">[root] provisioner.local&#45;exec</text>
</g>
<!-- [root] module.teste.aws_instance.west_web&#45;&gt;[root] provisioner.local&#45;exec -->
<g id="edge24" class="edge">
<title>[root] module.teste.aws_instance.west_web&#45;&gt;[root] provisioner.local&#45;exec</title>
<path fill="none" stroke="black" d="M2210.72,-287.97C2151.24,-276.83 2073.99,-262.37 2015.23,-251.38"/>
<polygon fill="black" stroke="black" points="2015.69,-247.9 2005.22,-249.5 2014.41,-254.78 2015.69,-247.9"/>
</g>
<!-- [root] module.teste.aws_internet_gateway.web_apps -->
<g id="node4" class="node">
<title>[root] module.teste.aws_internet_gateway.web_apps</title>
<polygon fill="none" stroke="black" points="353.73,-180 21.73,-180 21.73,-144 353.73,-144 353.73,-180"/>
<text text-anchor="middle" x="187.73" y="-158.3" font-family="Times,serif" font-size="14.00">module.teste.aws_internet_gateway.web_apps</text>
</g>
<!-- [root] module.teste.aws_vpc.web_apps -->
<g id="node13" class="node">
<title>[root] module.teste.aws_vpc.web_apps</title>
<polygon fill="none" stroke="black" points="798.73,-108 564.73,-108 564.73,-72 798.73,-72 798.73,-108"/>
<text text-anchor="middle" x="681.73" y="-86.3" font-family="Times,serif" font-size="14.00">module.teste.aws_vpc.web_apps</text>
</g>
<!-- [root] module.teste.aws_internet_gateway.web_apps&#45;&gt;[root] module.teste.aws_vpc.web_apps -->
<g id="edge25" class="edge">
<title>[root] module.teste.aws_internet_gateway.web_apps&#45;&gt;[root] module.teste.aws_vpc.web_apps</title>
<path fill="none" stroke="black" d="M307.95,-143.97C382.56,-133.39 478.36,-119.82 554.29,-109.06"/>
<polygon fill="black" stroke="black" points="554.99,-112.5 564.4,-107.63 554,-105.56 554.99,-112.5"/>
</g>
<!-- [root] module.teste.var.public_key_path -->
<g id="node25" class="node">
<title>[root] module.teste.var.public_key_path</title>
<polygon fill="none" stroke="black" points="2777.23,-108 2526.23,-108 2526.23,-72 2783.23,-72 2783.23,-102 2777.23,-108"/>
<polyline fill="none" stroke="black" points="2777.23,-108 2777.23,-102 "/>
<polyline fill="none" stroke="black" points="2783.23,-102 2777.23,-102 "/>
<text text-anchor="middle" x="2654.73" y="-86.3" font-family="Times,serif" font-size="14.00">module.teste.var.public_key_path</text>
</g>
<!-- [root] module.teste.aws_key_pair.terraform_resource_kp&#45;&gt;[root] module.teste.var.public_key_path -->
<g id="edge26" class="edge">
<title>[root] module.teste.aws_key_pair.terraform_resource_kp&#45;&gt;[root] module.teste.var.public_key_path</title>
<path fill="none" stroke="black" d="M2583.22,-143.7C2595.3,-134.8 2610.19,-123.82 2623.25,-114.2"/>
<polygon fill="black" stroke="black" points="2625.55,-116.85 2631.52,-108.1 2621.39,-111.22 2625.55,-116.85"/>
</g>
<!-- [root] module.teste.aws_key_pair.terraform_resource_kp&#45;&gt;[root] provider.aws -->
<g id="edge27" class="edge">
<title>[root] module.teste.aws_key_pair.terraform_resource_kp&#45;&gt;[root] provider.aws</title>
<path fill="none" stroke="black" d="M2523.85,-143.84C2477.47,-122.59 2393.64,-87.33 2317.73,-72 2118.84,-31.83 1510.94,-22.03 1270.31,-19.7"/>
<polygon fill="black" stroke="black" points="1270.2,-16.2 1260.17,-19.61 1270.14,-23.2 1270.2,-16.2"/>
</g>
<!-- [root] module.teste.aws_key_pair.terraform_resource_kp_west&#45;&gt;[root] module.teste.var.public_key_path -->
<g id="edge28" class="edge">
<title>[root] module.teste.aws_key_pair.terraform_resource_kp_west&#45;&gt;[root] module.teste.var.public_key_path</title>
<path fill="none" stroke="black" d="M2496.06,-215.98C2614.05,-204.69 2743.72,-190.13 2752.73,-180 2763.37,-168.04 2760.92,-157.74 2752.73,-144 2744.77,-130.64 2732.15,-120.45 2718.57,-112.75"/>
<polygon fill="black" stroke="black" points="2720.04,-109.56 2709.55,-108.04 2716.8,-115.77 2720.04,-109.56"/>
</g>
<!-- [root] provider.aws.oregon -->
<g id="node34" class="node">
<title>[root] provider.aws.oregon</title>
<polygon fill="none" stroke="black" points="3060.73,-180 2914.44,-162 3060.73,-144 3207.02,-162 3060.73,-180"/>
<text text-anchor="middle" x="3060.73" y="-158.3" font-family="Times,serif" font-size="14.00">provider.aws.oregon</text>
</g>
<!-- [root] module.teste.aws_key_pair.terraform_resource_kp_west&#45;&gt;[root] provider.aws.oregon -->
<g id="edge29" class="edge">
<title>[root] module.teste.aws_key_pair.terraform_resource_kp_west&#45;&gt;[root] provider.aws.oregon</title>
<path fill="none" stroke="black" d="M2486.43,-215.97C2640.36,-201.77 2852.93,-182.16 2971.55,-171.23"/>
<polygon fill="black" stroke="black" points="2972.04,-174.69 2981.68,-170.29 2971.4,-167.72 2972.04,-174.69"/>
</g>
<!-- [root] module.teste.aws_route_table.route_web_apps -->
<g id="node7" class="node">
<title>[root] module.teste.aws_route_table.route_web_apps</title>
<polygon fill="none" stroke="black" points="447.23,-252 108.23,-252 108.23,-216 447.23,-216 447.23,-252"/>
<text text-anchor="middle" x="277.73" y="-230.3" font-family="Times,serif" font-size="14.00">module.teste.aws_route_table.route_web_apps</text>
</g>
<!-- [root] module.teste.aws_route_table.route_web_apps&#45;&gt;[root] module.teste.aws_internet_gateway.web_apps -->
<g id="edge30" class="edge">
<title>[root] module.teste.aws_route_table.route_web_apps&#45;&gt;[root] module.teste.aws_internet_gateway.web_apps</title>
<path fill="none" stroke="black" d="M255.49,-215.7C244.15,-206.88 230.2,-196.03 217.91,-186.47"/>
<polygon fill="black" stroke="black" points="219.77,-183.48 209.72,-180.1 215.47,-189.01 219.77,-183.48"/>
</g>
<!-- [root] module.teste.aws_route_table_association.web_app_teste_route_web_apps -->
<g id="node8" class="node">
<title>[root] module.teste.aws_route_table_association.web_app_teste_route_web_apps</title>
<polygon fill="none" stroke="black" points="888.73,-324 354.73,-324 354.73,-288 888.73,-288 888.73,-324"/>
<text text-anchor="middle" x="621.73" y="-302.3" font-family="Times,serif" font-size="14.00">module.teste.aws_route_table_association.web_app_teste_route_web_apps</text>
</g>
<!-- [root] module.teste.aws_route_table_association.web_app_teste_route_web_apps&#45;&gt;[root] module.teste.aws_route_table.route_web_apps -->
<g id="edge31" class="edge">
<title>[root] module.teste.aws_route_table_association.web_app_teste_route_web_apps&#45;&gt;[root] module.teste.aws_route_table.route_web_apps</title>
<path fill="none" stroke="black" d="M538.02,-287.97C487.67,-277.72 423.47,-264.66 371.43,-254.07"/>
<polygon fill="black" stroke="black" points="372.02,-250.61 361.52,-252.05 370.62,-257.47 372.02,-250.61"/>
</g>
<!-- [root] module.teste.aws_route_table_association.web_app_teste_route_web_apps&#45;&gt;[root] module.teste.aws_subnet.web_app_teste -->
<g id="edge32" class="edge">
<title>[root] module.teste.aws_route_table_association.web_app_teste_route_web_apps&#45;&gt;[root] module.teste.aws_subnet.web_app_teste</title>
<path fill="none" stroke="black" d="M609.31,-287.87C591.37,-263.14 558.08,-217.24 537.24,-188.51"/>
<polygon fill="black" stroke="black" points="539.91,-186.23 531.2,-180.19 534.24,-190.34 539.91,-186.23"/>
</g>
<!-- [root] module.teste.aws_security_group.allow_remote_communication&#45;&gt;[root] provider.aws.oregon -->
<g id="edge33" class="edge">
<title>[root] module.teste.aws_security_group.allow_remote_communication&#45;&gt;[root] provider.aws.oregon</title>
<path fill="none" stroke="black" d="M2825.41,-215.97C2879.58,-203.77 2951.47,-187.59 3001.47,-176.34"/>
<polygon fill="black" stroke="black" points="3002.5,-179.7 3011.48,-174.08 3000.96,-172.87 3002.5,-179.7"/>
</g>
<!-- [root] module.teste.aws_security_group.allow_ssh&#45;&gt;[root] module.teste.aws_vpc.web_apps -->
<g id="edge34" class="edge">
<title>[root] module.teste.aws_security_group.allow_ssh&#45;&gt;[root] module.teste.aws_vpc.web_apps</title>
<path fill="none" stroke="black" d="M805.61,-143.88C783.09,-134.26 754.81,-122.19 730.96,-112.01"/>
<polygon fill="black" stroke="black" points="732.29,-108.77 721.72,-108.07 729.54,-115.21 732.29,-108.77"/>
</g>
<!-- [root] module.teste.aws_security_group.allow_ssh_west&#45;&gt;[root] provider.aws.oregon -->
<g id="edge35" class="edge">
<title>[root] module.teste.aws_security_group.allow_ssh_west&#45;&gt;[root] provider.aws.oregon</title>
<path fill="none" stroke="black" d="M3146.85,-215.88C3130.45,-205.81 3109.67,-193.05 3092.63,-182.59"/>
<polygon fill="black" stroke="black" points="3094.46,-179.6 3084.11,-177.35 3090.8,-185.57 3094.46,-179.6"/>
</g>
<!-- [root] module.teste.aws_subnet.web_app_teste&#45;&gt;[root] module.teste.aws_vpc.web_apps -->
<g id="edge36" class="edge">
<title>[root] module.teste.aws_subnet.web_app_teste&#45;&gt;[root] module.teste.aws_vpc.web_apps</title>
<path fill="none" stroke="black" d="M558.61,-143.88C580.89,-134.31 608.85,-122.3 632.49,-112.15"/>
<polygon fill="black" stroke="black" points="634.18,-115.23 641.99,-108.07 631.42,-108.8 634.18,-115.23"/>
</g>
<!-- [root] module.teste.aws_vpc.web_apps&#45;&gt;[root] provider.aws -->
<g id="edge37" class="edge">
<title>[root] module.teste.aws_vpc.web_apps&#45;&gt;[root] provider.aws</title>
<path fill="none" stroke="black" d="M798.86,-72.23C896.07,-58.32 1030.56,-39.07 1108.32,-27.93"/>
<polygon fill="black" stroke="black" points="1109.04,-31.37 1118.45,-26.48 1108.05,-24.44 1109.04,-31.37"/>
</g>
<!-- [root] module.teste.var.hash_commit -->
<g id="node23" class="node">
<title>[root] module.teste.var.hash_commit</title>
<polygon fill="none" stroke="black" points="2110.23,-108 1889.23,-108 1889.23,-72 2116.23,-72 2116.23,-102 2110.23,-108"/>
<polyline fill="none" stroke="black" points="2110.23,-108 2110.23,-102 "/>
<polyline fill="none" stroke="black" points="2116.23,-102 2110.23,-102 "/>
<text text-anchor="middle" x="2002.73" y="-86.3" font-family="Times,serif" font-size="14.00">module.teste.var.hash_commit</text>
</g>
<!-- [root] module.teste.data.aws_ami.gomex_image&#45;&gt;[root] module.teste.var.hash_commit -->
<g id="edge38" class="edge">
<title>[root] module.teste.data.aws_ami.gomex_image&#45;&gt;[root] module.teste.var.hash_commit</title>
<path fill="none" stroke="black" d="M2002.73,-143.7C2002.73,-135.98 2002.73,-126.71 2002.73,-118.11"/>
<polygon fill="black" stroke="black" points="2006.23,-118.1 2002.73,-108.1 1999.23,-118.1 2006.23,-118.1"/>
</g>
<!-- [root] module.teste.data.aws_ami.gomex_image&#45;&gt;[root] provider.aws -->
<g id="edge39" class="edge">
<title>[root] module.teste.data.aws_ami.gomex_image&#45;&gt;[root] provider.aws</title>
<path fill="none" stroke="black" d="M1962.82,-143.88C1938.74,-133.54 1907.45,-120.06 1879.73,-108 1843.23,-92.12 1836.31,-81.81 1797.73,-72 1697.64,-46.55 1403.34,-29.78 1256.33,-22.75"/>
<polygon fill="black" stroke="black" points="1256.16,-19.24 1246.01,-22.26 1255.83,-26.23 1256.16,-19.24"/>
</g>
<!-- [root] module.teste.var.ubuntu_image_name -->
<g id="node28" class="node">
<title>[root] module.teste.var.ubuntu_image_name</title>
<polygon fill="none" stroke="black" points="3650.73,-180 3384.73,-180 3384.73,-144 3656.73,-144 3656.73,-174 3650.73,-180"/>
<polyline fill="none" stroke="black" points="3650.73,-180 3650.73,-174 "/>
<polyline fill="none" stroke="black" points="3656.73,-174 3650.73,-174 "/>
<text text-anchor="middle" x="3520.73" y="-158.3" font-family="Times,serif" font-size="14.00">module.teste.var.ubuntu_image_name</text>
</g>
<!-- [root] module.teste.data.aws_ami.west_ubuntu&#45;&gt;[root] module.teste.var.ubuntu_image_name -->
<g id="edge40" class="edge">
<title>[root] module.teste.data.aws_ami.west_ubuntu&#45;&gt;[root] module.teste.var.ubuntu_image_name</title>
<path fill="none" stroke="black" d="M3520.73,-215.7C3520.73,-207.98 3520.73,-198.71 3520.73,-190.11"/>
<polygon fill="black" stroke="black" points="3524.23,-190.1 3520.73,-180.1 3517.23,-190.1 3524.23,-190.1"/>
</g>
<!-- [root] module.teste.data.aws_ami.west_ubuntu&#45;&gt;[root] provider.aws.oregon -->
<g id="edge41" class="edge">
<title>[root] module.teste.data.aws_ami.west_ubuntu&#45;&gt;[root] provider.aws.oregon</title>
<path fill="none" stroke="black" d="M3408.79,-215.97C3322.82,-202.88 3206.64,-185.2 3132.69,-173.95"/>
<polygon fill="black" stroke="black" points="3132.95,-170.45 3122.54,-172.41 3131.9,-177.37 3132.95,-170.45"/>
</g>
<!-- [root] module.teste.output.ip_address -->
<g id="node16" class="node">
<title>[root] module.teste.output.ip_address</title>
<polygon fill="none" stroke="black" points="1189.73,-324 953.73,-324 953.73,-288 1195.73,-288 1195.73,-318 1189.73,-324"/>
<polyline fill="none" stroke="black" points="1189.73,-324 1189.73,-318 "/>
<polyline fill="none" stroke="black" points="1195.73,-318 1189.73,-318 "/>
<text text-anchor="middle" x="1074.73" y="-302.3" font-family="Times,serif" font-size="14.00">module.teste.output.ip_address</text>
</g>
<!-- [root] module.teste.output.ip_address&#45;&gt;[root] module.teste.aws_instance.web -->
<g id="edge42" class="edge">
<title>[root] module.teste.output.ip_address&#45;&gt;[root] module.teste.aws_instance.web</title>
<path fill="none" stroke="black" d="M1150.9,-287.97C1196.43,-277.78 1254.4,-264.82 1301.6,-254.26"/>
<polygon fill="black" stroke="black" points="1302.5,-257.65 1311.49,-252.05 1300.97,-250.82 1302.5,-257.65"/>
</g>
<!-- [root] module.teste.output.ip_address_west -->
<g id="node17" class="node">
<title>[root] module.teste.output.ip_address_west</title>
<polygon fill="none" stroke="black" points="1970.23,-396 1697.23,-396 1697.23,-360 1976.23,-360 1976.23,-390 1970.23,-396"/>
<polyline fill="none" stroke="black" points="1970.23,-396 1970.23,-390 "/>
<polyline fill="none" stroke="black" points="1976.23,-390 1970.23,-390 "/>
<text text-anchor="middle" x="1836.73" y="-374.3" font-family="Times,serif" font-size="14.00">module.teste.output.ip_address_west</text>
</g>
<!-- [root] module.teste.output.ip_address_west&#45;&gt;[root] module.teste.aws_instance.west_web -->
<g id="edge43" class="edge">
<title>[root] module.teste.output.ip_address_west&#45;&gt;[root] module.teste.aws_instance.west_web</title>
<path fill="none" stroke="black" d="M1949.89,-359.97C2019.09,-349.55 2107.63,-336.22 2178.58,-325.54"/>
<polygon fill="black" stroke="black" points="2179.1,-329 2188.47,-324.05 2178.06,-322.08 2179.1,-329"/>
</g>
<!-- [root] module.teste.output.public_dns -->
<g id="node18" class="node">
<title>[root] module.teste.output.public_dns</title>
<polygon fill="none" stroke="black" points="1450.73,-324 1214.73,-324 1214.73,-288 1456.73,-288 1456.73,-318 1450.73,-324"/>
<polyline fill="none" stroke="black" points="1450.73,-324 1450.73,-318 "/>
<polyline fill="none" stroke="black" points="1456.73,-318 1450.73,-318 "/>
<text text-anchor="middle" x="1335.73" y="-302.3" font-family="Times,serif" font-size="14.00">module.teste.output.public_dns</text>
</g>
<!-- [root] module.teste.output.public_dns&#45;&gt;[root] module.teste.aws_instance.web -->
<g id="edge44" class="edge">
<title>[root] module.teste.output.public_dns&#45;&gt;[root] module.teste.aws_instance.web</title>
<path fill="none" stroke="black" d="M1348.59,-287.7C1354.76,-279.39 1362.27,-269.28 1369.06,-260.14"/>
<polygon fill="black" stroke="black" points="1371.87,-262.22 1375.03,-252.1 1366.25,-258.04 1371.87,-262.22"/>
</g>
<!-- [root] module.teste.output.public_dns_west -->
<g id="node19" class="node">
<title>[root] module.teste.output.public_dns_west</title>
<polygon fill="none" stroke="black" points="2267.23,-396 1994.23,-396 1994.23,-360 2273.23,-360 2273.23,-390 2267.23,-396"/>
<polyline fill="none" stroke="black" points="2267.23,-396 2267.23,-390 "/>
<polyline fill="none" stroke="black" points="2273.23,-390 2267.23,-390 "/>
<text text-anchor="middle" x="2133.73" y="-374.3" font-family="Times,serif" font-size="14.00">module.teste.output.public_dns_west</text>
</g>
<!-- [root] module.teste.output.public_dns_west&#45;&gt;[root] module.teste.aws_instance.west_web -->
<g id="edge45" class="edge">
<title>[root] module.teste.output.public_dns_west&#45;&gt;[root] module.teste.aws_instance.west_web</title>
<path fill="none" stroke="black" d="M2174.83,-359.88C2197.9,-350.26 2226.87,-338.19 2251.3,-328.01"/>
<polygon fill="black" stroke="black" points="2252.88,-331.15 2260.77,-324.07 2250.19,-324.68 2252.88,-331.15"/>
</g>
<!-- [root] var.blocks -->
<g id="node35" class="node">
<title>[root] var.blocks</title>
<polygon fill="none" stroke="black" points="2302.73,-108 2216.73,-108 2216.73,-72 2308.73,-72 2308.73,-102 2302.73,-108"/>
<polyline fill="none" stroke="black" points="2302.73,-108 2302.73,-102 "/>
<polyline fill="none" stroke="black" points="2308.73,-102 2302.73,-102 "/>
<text text-anchor="middle" x="2262.73" y="-86.3" font-family="Times,serif" font-size="14.00">var.blocks</text>
</g>
<!-- [root] module.teste.var.blocks&#45;&gt;[root] var.blocks -->
<g id="edge46" class="edge">
<title>[root] module.teste.var.blocks&#45;&gt;[root] var.blocks</title>
<path fill="none" stroke="black" d="M2262.73,-143.7C2262.73,-135.98 2262.73,-126.71 2262.73,-118.11"/>
<polygon fill="black" stroke="black" points="2266.23,-118.1 2262.73,-108.1 2259.23,-118.1 2266.23,-118.1"/>
</g>
<!-- [root] module.teste.var.dynatrace_install_token -->
<g id="node21" class="node">
<title>[root] module.teste.var.dynatrace_install_token</title>
<polygon fill="none" stroke="black" points="1455.23,-468 1144.23,-468 1144.23,-432 1461.23,-432 1461.23,-462 1455.23,-468"/>
<polyline fill="none" stroke="black" points="1455.23,-468 1455.23,-462 "/>
<polyline fill="none" stroke="black" points="1461.23,-462 1455.23,-462 "/>
<text text-anchor="middle" x="1302.73" y="-446.3" font-family="Times,serif" font-size="14.00">module.teste.var.dynatrace_install_token</text>
</g>
<!-- [root] var.dynatrace_install_token -->
<g id="node36" class="node">
<title>[root] var.dynatrace_install_token</title>
<polygon fill="none" stroke="black" points="1406.23,-396 1193.23,-396 1193.23,-360 1412.23,-360 1412.23,-390 1406.23,-396"/>
<polyline fill="none" stroke="black" points="1406.23,-396 1406.23,-390 "/>
<polyline fill="none" stroke="black" points="1412.23,-390 1406.23,-390 "/>
<text text-anchor="middle" x="1302.73" y="-374.3" font-family="Times,serif" font-size="14.00">var.dynatrace_install_token</text>
</g>
<!-- [root] module.teste.var.dynatrace_install_token&#45;&gt;[root] var.dynatrace_install_token -->
<g id="edge47" class="edge">
<title>[root] module.teste.var.dynatrace_install_token&#45;&gt;[root] var.dynatrace_install_token</title>
<path fill="none" stroke="black" d="M1302.73,-431.7C1302.73,-423.98 1302.73,-414.71 1302.73,-406.11"/>
<polygon fill="black" stroke="black" points="1306.23,-406.1 1302.73,-396.1 1299.23,-406.1 1306.23,-406.1"/>
</g>
<!-- [root] module.teste.var.dynatrace_tenant_URL -->
<g id="node22" class="node">
<title>[root] module.teste.var.dynatrace_tenant_URL</title>
<polygon fill="none" stroke="black" points="1767.73,-468 1479.73,-468 1479.73,-432 1773.73,-432 1773.73,-462 1767.73,-468"/>
<polyline fill="none" stroke="black" points="1767.73,-468 1767.73,-462 "/>
<polyline fill="none" stroke="black" points="1773.73,-462 1767.73,-462 "/>
<text text-anchor="middle" x="1626.73" y="-446.3" font-family="Times,serif" font-size="14.00">module.teste.var.dynatrace_tenant_URL</text>
</g>
<!-- [root] var.dynatrace_tenant_URL -->
<g id="node37" class="node">
<title>[root] var.dynatrace_tenant_URL</title>
<polygon fill="none" stroke="black" points="1673.23,-396 1482.23,-396 1482.23,-360 1679.23,-360 1679.23,-390 1673.23,-396"/>
<polyline fill="none" stroke="black" points="1673.23,-396 1673.23,-390 "/>
<polyline fill="none" stroke="black" points="1679.23,-390 1673.23,-390 "/>
<text text-anchor="middle" x="1580.73" y="-374.3" font-family="Times,serif" font-size="14.00">var.dynatrace_tenant_URL</text>
</g>
<!-- [root] module.teste.var.dynatrace_tenant_URL&#45;&gt;[root] var.dynatrace_tenant_URL -->
<g id="edge48" class="edge">
<title>[root] module.teste.var.dynatrace_tenant_URL&#45;&gt;[root] var.dynatrace_tenant_URL</title>
<path fill="none" stroke="black" d="M1615.36,-431.7C1610.01,-423.56 1603.53,-413.69 1597.62,-404.7"/>
<polygon fill="black" stroke="black" points="1600.39,-402.54 1591.97,-396.1 1594.54,-406.38 1600.39,-402.54"/>
</g>
<!-- [root] var.hash_commit -->
<g id="node38" class="node">
<title>[root] var.hash_commit</title>
<polygon fill="none" stroke="black" points="2061.23,-36 1938.23,-36 1938.23,0 2067.23,0 2067.23,-30 2061.23,-36"/>
<polyline fill="none" stroke="black" points="2061.23,-36 2061.23,-30 "/>
<polyline fill="none" stroke="black" points="2067.23,-30 2061.23,-30 "/>
<text text-anchor="middle" x="2002.73" y="-14.3" font-family="Times,serif" font-size="14.00">var.hash_commit</text>
</g>
<!-- [root] module.teste.var.hash_commit&#45;&gt;[root] var.hash_commit -->
<g id="edge49" class="edge">
<title>[root] module.teste.var.hash_commit&#45;&gt;[root] var.hash_commit</title>
<path fill="none" stroke="black" d="M2002.73,-71.7C2002.73,-63.98 2002.73,-54.71 2002.73,-46.11"/>
<polygon fill="black" stroke="black" points="2006.23,-46.1 2002.73,-36.1 1999.23,-46.1 2006.23,-46.1"/>
</g>
<!-- [root] var.private_key_path -->
<g id="node39" class="node">
<title>[root] var.private_key_path</title>
<polygon fill="none" stroke="black" points="1783.23,-108 1622.23,-108 1622.23,-72 1789.23,-72 1789.23,-102 1783.23,-108"/>
<polyline fill="none" stroke="black" points="1783.23,-108 1783.23,-102 "/>
<polyline fill="none" stroke="black" points="1789.23,-102 1783.23,-102 "/>
<text text-anchor="middle" x="1705.73" y="-86.3" font-family="Times,serif" font-size="14.00">var.private_key_path</text>
</g>
<!-- [root] module.teste.var.private_key_path&#45;&gt;[root] var.private_key_path -->
<g id="edge50" class="edge">
<title>[root] module.teste.var.private_key_path&#45;&gt;[root] var.private_key_path</title>
<path fill="none" stroke="black" d="M1705.73,-143.7C1705.73,-135.98 1705.73,-126.71 1705.73,-118.11"/>
<polygon fill="black" stroke="black" points="1709.23,-118.1 1705.73,-108.1 1702.23,-118.1 1709.23,-118.1"/>
</g>
<!-- [root] var.public_key_path -->
<g id="node40" class="node">
<title>[root] var.public_key_path</title>
<polygon fill="none" stroke="black" points="2728.23,-36 2575.23,-36 2575.23,0 2734.23,0 2734.23,-30 2728.23,-36"/>
<polyline fill="none" stroke="black" points="2728.23,-36 2728.23,-30 "/>
<polyline fill="none" stroke="black" points="2734.23,-30 2728.23,-30 "/>
<text text-anchor="middle" x="2654.73" y="-14.3" font-family="Times,serif" font-size="14.00">var.public_key_path</text>
</g>
<!-- [root] module.teste.var.public_key_path&#45;&gt;[root] var.public_key_path -->
<g id="edge51" class="edge">
<title>[root] module.teste.var.public_key_path&#45;&gt;[root] var.public_key_path</title>
<path fill="none" stroke="black" d="M2654.73,-71.7C2654.73,-63.98 2654.73,-54.71 2654.73,-46.11"/>
<polygon fill="black" stroke="black" points="2658.23,-46.1 2654.73,-36.1 2651.23,-46.1 2658.23,-46.1"/>
</g>
<!-- [root] var.ubuntu_image_name -->
<g id="node41" class="node">
<title>[root] var.ubuntu_image_name</title>
<polygon fill="none" stroke="black" points="3601.73,-108 3433.73,-108 3433.73,-72 3607.73,-72 3607.73,-102 3601.73,-108"/>
<polyline fill="none" stroke="black" points="3601.73,-108 3601.73,-102 "/>
<polyline fill="none" stroke="black" points="3607.73,-102 3601.73,-102 "/>
<text text-anchor="middle" x="3520.73" y="-86.3" font-family="Times,serif" font-size="14.00">var.ubuntu_image_name</text>
</g>
<!-- [root] module.teste.var.ubuntu_image_name&#45;&gt;[root] var.ubuntu_image_name -->
<g id="edge52" class="edge">
<title>[root] module.teste.var.ubuntu_image_name&#45;&gt;[root] var.ubuntu_image_name</title>
<path fill="none" stroke="black" d="M3520.73,-143.7C3520.73,-135.98 3520.73,-126.71 3520.73,-118.11"/>
<polygon fill="black" stroke="black" points="3524.23,-118.1 3520.73,-108.1 3517.23,-118.1 3524.23,-118.1"/>
</g>
<!-- [root] output.ip_address -->
<g id="node29" class="node">
<title>[root] output.ip_address</title>
<polygon fill="none" stroke="black" points="957.73,-468 819.73,-468 819.73,-432 963.73,-432 963.73,-462 957.73,-468"/>
<polyline fill="none" stroke="black" points="957.73,-468 957.73,-462 "/>
<polyline fill="none" stroke="black" points="963.73,-462 957.73,-462 "/>
<text text-anchor="middle" x="891.73" y="-446.3" font-family="Times,serif" font-size="14.00">output.ip_address</text>
</g>
<!-- [root] output.ip_address&#45;&gt;[root] module.teste.output.ip_address -->
<g id="edge53" class="edge">
<title>[root] output.ip_address&#45;&gt;[root] module.teste.output.ip_address</title>
<path fill="none" stroke="black" d="M913.81,-431.87C946.37,-406.6 1007.39,-359.25 1044.22,-330.68"/>
<polygon fill="black" stroke="black" points="1046.83,-333.08 1052.58,-324.19 1042.53,-327.55 1046.83,-333.08"/>
</g>
<!-- [root] output.ip_address_west -->
<g id="node30" class="node">
<title>[root] output.ip_address_west</title>
<polygon fill="none" stroke="black" points="1967.73,-468 1791.73,-468 1791.73,-432 1973.73,-432 1973.73,-462 1967.73,-468"/>
<polyline fill="none" stroke="black" points="1967.73,-468 1967.73,-462 "/>
<polyline fill="none" stroke="black" points="1973.73,-462 1967.73,-462 "/>
<text text-anchor="middle" x="1882.73" y="-446.3" font-family="Times,serif" font-size="14.00">output.ip_address_west</text>
</g>
<!-- [root] output.ip_address_west&#45;&gt;[root] module.teste.output.ip_address_west -->
<g id="edge54" class="edge">
<title>[root] output.ip_address_west&#45;&gt;[root] module.teste.output.ip_address_west</title>
<path fill="none" stroke="black" d="M1871.36,-431.7C1866.01,-423.56 1859.53,-413.69 1853.62,-404.7"/>
<polygon fill="black" stroke="black" points="1856.39,-402.54 1847.97,-396.1 1850.54,-406.38 1856.39,-402.54"/>
</g>
<!-- [root] output.public_dns -->
<g id="node31" class="node">
<title>[root] output.public_dns</title>
<polygon fill="none" stroke="black" points="1119.73,-468 981.73,-468 981.73,-432 1125.73,-432 1125.73,-462 1119.73,-468"/>
<polyline fill="none" stroke="black" points="1119.73,-468 1119.73,-462 "/>
<polyline fill="none" stroke="black" points="1125.73,-462 1119.73,-462 "/>
<text text-anchor="middle" x="1053.73" y="-446.3" font-family="Times,serif" font-size="14.00">output.public_dns</text>
</g>
<!-- [root] output.public_dns&#45;&gt;[root] module.teste.output.public_dns -->
<g id="edge55" class="edge">
<title>[root] output.public_dns&#45;&gt;[root] module.teste.output.public_dns</title>
<path fill="none" stroke="black" d="M1075.16,-431.68C1100.06,-412.2 1142.96,-380.6 1183.73,-360 1209.5,-346.98 1239.23,-335.83 1265.52,-327.17"/>
<polygon fill="black" stroke="black" points="1266.6,-330.5 1275.04,-324.1 1264.44,-323.84 1266.6,-330.5"/>
</g>
<!-- [root] output.public_dns_west -->
<g id="node32" class="node">
<title>[root] output.public_dns_west</title>
<polygon fill="none" stroke="black" points="2208.73,-468 2032.73,-468 2032.73,-432 2214.73,-432 2214.73,-462 2208.73,-468"/>
<polyline fill="none" stroke="black" points="2208.73,-468 2208.73,-462 "/>
<polyline fill="none" stroke="black" points="2214.73,-462 2208.73,-462 "/>
<text text-anchor="middle" x="2123.73" y="-446.3" font-family="Times,serif" font-size="14.00">output.public_dns_west</text>
</g>
<!-- [root] output.public_dns_west&#45;&gt;[root] module.teste.output.public_dns_west -->
<g id="edge56" class="edge">
<title>[root] output.public_dns_west&#45;&gt;[root] module.teste.output.public_dns_west</title>
<path fill="none" stroke="black" d="M2126.2,-431.7C2127.31,-423.98 2128.63,-414.71 2129.86,-406.11"/>
<polygon fill="black" stroke="black" points="2133.34,-406.5 2131.29,-396.1 2126.41,-405.51 2133.34,-406.5"/>
</g>
<!-- [root] meta.count&#45;boundary (EachMode fixup) -->
<g id="node42" class="node">
<title>[root] meta.count&#45;boundary (EachMode fixup)</title>
<ellipse fill="none" stroke="black" cx="1271.73" cy="-522" rx="220.16" ry="18"/>
<text text-anchor="middle" x="1271.73" y="-518.3" font-family="Times,serif" font-size="14.00">[root] meta.count&#45;boundary (EachMode fixup)</text>
</g>
<!-- [root] meta.count&#45;boundary (EachMode fixup)&#45;&gt;[root] aws_dynamodb_table.dynamo_state_lock -->
<g id="edge2" class="edge">
<title>[root] meta.count&#45;boundary (EachMode fixup)&#45;&gt;[root] aws_dynamodb_table.dynamo_state_lock</title>
<path fill="none" stroke="black" d="M1120.42,-508.91C1024.68,-500.15 898.5,-486.58 787.73,-468 645.25,-444.1 610.11,-434.06 470.73,-396 394.18,-375.09 307.26,-346.46 251.3,-327.38"/>
<polygon fill="black" stroke="black" points="252.16,-323.97 241.56,-324.05 249.89,-330.6 252.16,-323.97"/>
</g>
<!-- [root] meta.count&#45;boundary (EachMode fixup)&#45;&gt;[root] module.teste.aws_route_table_association.web_app_teste_route_web_apps -->
<g id="edge3" class="edge">
<title>[root] meta.count&#45;boundary (EachMode fixup)&#45;&gt;[root] module.teste.aws_route_table_association.web_app_teste_route_web_apps</title>
<path fill="none" stroke="black" d="M1057.23,-517.87C956.08,-512.18 849.22,-498.71 810.73,-468 770.96,-436.26 808.73,-395.97 772.73,-360 758.38,-345.65 739.92,-335.18 720.87,-327.54"/>
<polygon fill="black" stroke="black" points="722.08,-324.25 711.49,-324.01 719.61,-330.8 722.08,-324.25"/>
</g>
<!-- [root] meta.count&#45;boundary (EachMode fixup)&#45;&gt;[root] module.teste.var.dynatrace_install_token -->
<g id="edge4" class="edge">
<title>[root] meta.count&#45;boundary (EachMode fixup)&#45;&gt;[root] module.teste.var.dynatrace_install_token</title>
<path fill="none" stroke="black" d="M1279.4,-503.7C1282.92,-495.73 1287.19,-486.1 1291.1,-477.26"/>
<polygon fill="black" stroke="black" points="1294.31,-478.67 1295.16,-468.1 1287.91,-475.83 1294.31,-478.67"/>
</g>
<!-- [root] meta.count&#45;boundary (EachMode fixup)&#45;&gt;[root] module.teste.var.dynatrace_tenant_URL -->
<g id="edge5" class="edge">
<title>[root] meta.count&#45;boundary (EachMode fixup)&#45;&gt;[root] module.teste.var.dynatrace_tenant_URL</title>
<path fill="none" stroke="black" d="M1351.84,-505.2C1404.8,-494.76 1474.51,-481.02 1530.47,-469.98"/>
<polygon fill="black" stroke="black" points="1531.26,-473.39 1540.4,-468.02 1529.91,-466.52 1531.26,-473.39"/>
</g>
<!-- [root] meta.count&#45;boundary (EachMode fixup)&#45;&gt;[root] output.ip_address -->
<g id="edge6" class="edge">
<title>[root] meta.count&#45;boundary (EachMode fixup)&#45;&gt;[root] output.ip_address</title>
<path fill="none" stroke="black" d="M1180.32,-505.56C1123.6,-495.8 1048.96,-482.64 974.2,-468.26"/>
<polygon fill="black" stroke="black" points="974.62,-464.77 964.13,-466.31 973.29,-471.65 974.62,-464.77"/>
</g>
<!-- [root] meta.count&#45;boundary (EachMode fixup)&#45;&gt;[root] output.ip_address_west -->
<g id="edge7" class="edge">
<title>[root] meta.count&#45;boundary (EachMode fixup)&#45;&gt;[root] output.ip_address_west</title>
<path fill="none" stroke="black" d="M1417.13,-508.46C1516.95,-499.24 1652.69,-485.53 1781.44,-468.13"/>
<polygon fill="black" stroke="black" points="1782.05,-471.58 1791.48,-466.76 1781.1,-464.64 1782.05,-471.58"/>
</g>
<!-- [root] meta.count&#45;boundary (EachMode fixup)&#45;&gt;[root] output.public_dns -->
<g id="edge8" class="edge">
<title>[root] meta.count&#45;boundary (EachMode fixup)&#45;&gt;[root] output.public_dns</title>
<path fill="none" stroke="black" d="M1220.07,-504.41C1189.15,-494.48 1149.62,-481.79 1116.85,-471.27"/>
<polygon fill="black" stroke="black" points="1117.51,-467.8 1106.92,-468.08 1115.37,-474.47 1117.51,-467.8"/>
</g>
<!-- [root] meta.count&#45;boundary (EachMode fixup)&#45;&gt;[root] output.public_dns_west -->
<g id="edge9" class="edge">
<title>[root] meta.count&#45;boundary (EachMode fixup)&#45;&gt;[root] output.public_dns_west</title>
<path fill="none" stroke="black" d="M1428.93,-509.33C1636.25,-493.92 1975.89,-468.67 1982.73,-468 1995.54,-466.75 2008.99,-465.3 2022.28,-463.79"/>
<polygon fill="black" stroke="black" points="2022.87,-467.25 2032.4,-462.63 2022.07,-460.29 2022.87,-467.25"/>
</g>
<!-- [root] provider.aws (close) -->
<g id="node45" class="node">
<title>[root] provider.aws (close)</title>
<ellipse fill="none" stroke="black" cx="621.73" cy="-378" rx="142.17" ry="18"/>
<text text-anchor="middle" x="621.73" y="-374.3" font-family="Times,serif" font-size="14.00">[root] provider.aws (close)</text>
</g>
<!-- [root] provider.aws (close)&#45;&gt;[root] aws_dynamodb_table.dynamo_state_lock -->
<g id="edge57" class="edge">
<title>[root] provider.aws (close)&#45;&gt;[root] aws_dynamodb_table.dynamo_state_lock</title>
<path fill="none" stroke="black" d="M538.25,-363.38C472.49,-352.65 380.08,-337.57 307.38,-325.71"/>
<polygon fill="black" stroke="black" points="307.69,-322.21 297.26,-324.06 306.56,-329.12 307.69,-322.21"/>
</g>
<!-- [root] provider.aws (close)&#45;&gt;[root] module.teste.aws_instance.web -->
<g id="edge58" class="edge">
<title>[root] provider.aws (close)&#45;&gt;[root] module.teste.aws_instance.web</title>
<path fill="none" stroke="black" d="M735.78,-367.13C786.96,-359.71 847.09,-346.72 897.73,-324 921.74,-313.23 920.36,-297.91 944.73,-288 1000.18,-265.45 1150.14,-250.81 1260.28,-242.75"/>
<polygon fill="black" stroke="black" points="1260.76,-246.22 1270.48,-242.01 1260.25,-239.24 1260.76,-246.22"/>
</g>
<!-- [root] provider.aws (close)&#45;&gt;[root] module.teste.aws_route_table_association.web_app_teste_route_web_apps -->
<g id="edge59" class="edge">
<title>[root] provider.aws (close)&#45;&gt;[root] module.teste.aws_route_table_association.web_app_teste_route_web_apps</title>
<path fill="none" stroke="black" d="M621.73,-359.7C621.73,-351.98 621.73,-342.71 621.73,-334.11"/>
<polygon fill="black" stroke="black" points="625.23,-334.1 621.73,-324.1 618.23,-334.1 625.23,-334.1"/>
</g>
<!-- [root] provider.aws.oregon (close) -->
<g id="node46" class="node">
<title>[root] provider.aws.oregon (close)</title>
<ellipse fill="none" stroke="black" cx="1686.73" cy="-522" rx="176.57" ry="18"/>
<text text-anchor="middle" x="1686.73" y="-518.3" font-family="Times,serif" font-size="14.00">[root] provider.aws.oregon (close)</text>
</g>
<!-- [root] provider.aws.oregon (close)&#45;&gt;[root] module.teste.aws_instance.west_web -->
<g id="edge60" class="edge">
<title>[root] provider.aws.oregon (close)&#45;&gt;[root] module.teste.aws_instance.west_web</title>
<path fill="none" stroke="black" d="M1811.97,-509.24C1969.23,-494.38 2219.22,-470.44 2223.73,-468 2259.88,-448.46 2263.87,-433.01 2281.73,-396 2291.17,-376.45 2296.23,-352.31 2298.9,-334.11"/>
<polygon fill="black" stroke="black" points="2302.38,-334.53 2300.21,-324.16 2295.44,-333.62 2302.38,-334.53"/>
</g>
<!-- [root] provisioner.local&#45;exec (close) -->
<g id="node47" class="node">
<title>[root] provisioner.local&#45;exec (close)</title>
<ellipse fill="none" stroke="black" cx="2072.73" cy="-522" rx="191.17" ry="18"/>
<text text-anchor="middle" x="2072.73" y="-518.3" font-family="Times,serif" font-size="14.00">[root] provisioner.local&#45;exec (close)</text>
</g>
<!-- [root] provisioner.local&#45;exec (close)&#45;&gt;[root] module.teste.aws_instance.west_web -->
<g id="edge61" class="edge">
<title>[root] provisioner.local&#45;exec (close)&#45;&gt;[root] module.teste.aws_instance.west_web</title>
<path fill="none" stroke="black" d="M2197.17,-508.28C2248.66,-500.22 2300.02,-487.5 2315.73,-468 2346.49,-429.82 2328.73,-368.74 2314.36,-333.82"/>
<polygon fill="black" stroke="black" points="2317.43,-332.09 2310.26,-324.29 2311,-334.86 2317.43,-332.09"/>
</g>
<!-- [root] provisioner.remote&#45;exec (close) -->
<g id="node48" class="node">
<title>[root] provisioner.remote&#45;exec (close)</title>
<ellipse fill="none" stroke="black" cx="2477.73" cy="-522" rx="196.07" ry="18"/>
<text text-anchor="middle" x="2477.73" y="-518.3" font-family="Times,serif" font-size="14.00">[root] provisioner.remote&#45;exec (close)</text>
</g>
<!-- [root] provisioner.remote&#45;exec (close)&#45;&gt;[root] module.teste.aws_instance.west_web -->
<g id="edge62" class="edge">
<title>[root] provisioner.remote&#45;exec (close)&#45;&gt;[root] module.teste.aws_instance.west_web</title>
<path fill="none" stroke="black" d="M2465.69,-504.03C2444.23,-474.08 2397.5,-410.3 2353.73,-360 2345.27,-350.28 2335.49,-340.06 2326.7,-331.22"/>
<polygon fill="black" stroke="black" points="2329.17,-328.74 2319.61,-324.16 2324.23,-333.7 2329.17,-328.74"/>
</g>
<!-- [root] root -->
<g id="node49" class="node">
<title>[root] root</title>
<ellipse fill="none" stroke="black" cx="1686.73" cy="-594" rx="64.19" ry="18"/>
<text text-anchor="middle" x="1686.73" y="-590.3" font-family="Times,serif" font-size="14.00">[root] root</text>
</g>
<!-- [root] root&#45;&gt;[root] meta.count&#45;boundary (EachMode fixup) -->
<g id="edge63" class="edge">
<title>[root] root&#45;&gt;[root] meta.count&#45;boundary (EachMode fixup)</title>
<path fill="none" stroke="black" d="M1632.9,-583.92C1567.32,-572.86 1455.15,-553.94 1373.18,-540.11"/>
<polygon fill="black" stroke="black" points="1373.53,-536.62 1363.08,-538.41 1372.36,-543.52 1373.53,-536.62"/>
</g>
<!-- [root] root&#45;&gt;[root] provider.aws (close) -->
<g id="edge64" class="edge">
<title>[root] root&#45;&gt;[root] provider.aws (close)</title>
<path fill="none" stroke="black" d="M1622.67,-591.81C1506.3,-588.75 1252.76,-577.93 1042.73,-540 926.84,-519.07 896.94,-512.08 787.73,-468 740.89,-449.09 690.14,-420.6 657.25,-400.97"/>
<polygon fill="black" stroke="black" points="658.83,-397.84 648.46,-395.68 655.23,-403.84 658.83,-397.84"/>
</g>
<!-- [root] root&#45;&gt;[root] provider.aws.oregon (close) -->
<g id="edge65" class="edge">
<title>[root] root&#45;&gt;[root] provider.aws.oregon (close)</title>
<path fill="none" stroke="black" d="M1686.73,-575.7C1686.73,-567.98 1686.73,-558.71 1686.73,-550.11"/>
<polygon fill="black" stroke="black" points="1690.23,-550.1 1686.73,-540.1 1683.23,-550.1 1690.23,-550.1"/>
</g>
<!-- [root] root&#45;&gt;[root] provisioner.local&#45;exec (close) -->
<g id="edge66" class="edge">
<title>[root] root&#45;&gt;[root] provisioner.local&#45;exec (close)</title>
<path fill="none" stroke="black" d="M1739.19,-583.49C1800.64,-572.34 1903.61,-553.67 1978.92,-540.01"/>
<polygon fill="black" stroke="black" points="1979.67,-543.43 1988.89,-538.21 1978.42,-536.55 1979.67,-543.43"/>
</g>
<!-- [root] root&#45;&gt;[root] provisioner.remote&#45;exec (close) -->
<g id="edge67" class="edge">
<title>[root] root&#45;&gt;[root] provisioner.remote&#45;exec (close)</title>
<path fill="none" stroke="black" d="M1747.16,-587.65C1870.98,-576.7 2156.56,-551.42 2331.74,-535.92"/>
<polygon fill="black" stroke="black" points="2332.16,-539.4 2341.81,-535.03 2331.54,-532.42 2332.16,-539.4"/>
</g>
</g>
</svg>
